<!--?xml version="1.0" encoding="UTF-8"?-->
<svg width="808px" height="527px" viewBox="0 0 808 527" version="1.1" xmlns="http://www.w3.org/2000/svg" xmlns:xlink="http://www.w3.org/1999/xlink" style="">
    <!-- Generator: Sketch 50.2 (55047) - http://www.bohemiancoding.com/sketch -->
    <title>_x3C_head_up_x3E_</title>
    <desc>Created with Sketch.</desc>
    <defs></defs>
    <g id="Index-2" stroke="none" stroke-width="1" fill="none" fill-rule="evenodd">
        <g id="index-1" transform="translate(-314.000000, -4138.000000)" stroke="#3F95B5">
            <g id="For-Very-one" transform="translate(135.000000, 4054.000000)">
                <g id="_x3C_head_up_x3E_" transform="translate(180.000000, 85.000000)">
                    <path d="M255.446914,64.5086355 C256.594368,66.0248743 255.886582,64.235054 256.305508,62.0480356 C256.594368,60.540034 256.873365,58.1223016 256.991565,54.2572453 C257.184647,46.3329877 253.998803,45.8498012 253.998803,45.8498012 L12.4539223,0.913461975 C-0.19291193,-1.98565669 0.000169509082,2.94284504 0.000169509082,2.94284504 L7.91650852,375.680705 L15.5432254,378 L28.3831411,375.970617 L27.5142746,311.996732" id="Shape" class="vbuTwEPm_0"></path>
                    <path d="M384.21618,238.43183 L326.907017,140.19228 C326.907017,140.19228 325.164509,135.726846 324.583672,132.523383 C322.357134,120.777349 317.032803,92.7227745 315.387101,84.471429 C313.354174,73.9873664 303.576767,72.6283212 303.576767,72.6283212 L291.08879,70.5897535 C208.900481,58.3583471 78.5027747,46.903538 66.6924405,47.0006126 C54.8821063,47.0976873 53.9140461,58.0671231 53.9140461,58.0671231 C52.8491799,75.6376355 58.560735,106.895674 62.7233938,126.601829 C64.9499322,137.280041 71.9199655,155.821299 71.9199655,155.821299 L121.775065,265.321509 L114.708225,265.806882 L22.3552843,271.437212 C22.3552843,271.437212 16.9341472,310.752447 27.7764213,313.470537 L596.221359,422 L806,355.600937 L805.322358,275.514348 L384.022568,238.043531" id="Shape" class="vbuTwEPm_1"></path>
                    <path d="M22,270 L156.156281,291.918854 L173.119683,290.548926 L205.01088,282.329356 C205.01088,282.329356 222.071217,274.011933 333.738872,285.069212 L597.980218,311 L806,274.109785" id="Shape" class="vbuTwEPm_2"></path>
                    <path d="M637,294.896377 L596.213538,301 L318.730286,273.775906 L241.796581,268.156698 C241.796581,268.156698 208.8388,264.57203 190.088625,262.053075 L157.807397,253.914912 C157.807397,253.914912 151.911724,252.461668 150.172017,251.20219 C148.52896,249.942713 145.629449,245.292334 145.629449,245.292334 L95.854501,127.870261 L83,71 L298.820307,93.5737152 L308.195394,133.489469 L310.321703,141.724516 L366.475576,243.742207" id="Shape" class="vbuTwEPm_3"></path>
                    <path d="M721,280 L655,290" id="Shape" class="vbuTwEPm_4"></path>
                    <path d="M765,274 L752,276" id="Shape" class="vbuTwEPm_5"></path>
                    <path id="Shape" d="M634,411L616.127557,516.215919L598.825511,525L567.548736,516.215919L555,412.351397" class="vbuTwEPm_6"></path>
                    <path d="M727,381.456038 L735.666667,448.181686 C735.666667,448.181686 763.666667,452.272893 767,448.181686 C770.333333,444.090478 785,361 785,361" id="Shape" class="vbuTwEPm_7"></path>
                    <path d="M597,311 L596,421" id="Shape" class="vbuTwEPm_8"></path>
                    <path id="Shape" d="M12.7669903,378L3.34951456,5.04207798L253.349515,48.9570313L253.349515,64.9165217" class="vbuTwEPm_9"></path>
                    <path d="M231,272.656863 C231,272.656863 210.387097,277.127451 191.516129,281.970588 C172.83871,286.720588 158.322581,287 158.322581,287 L51,271.166667 L97.8387097,269.303922 L127.064516,268" id="Shape" class="vbuTwEPm_10"></path>
                    <path id="Shape" d="M673.982521,295L787,276.020992L367,244" class="vbuTwEPm_11"></path>
                    <path d="M69.8509261,46 C64.1465332,48.0408012 66.4669642,59.8968843 66.4669642,59.8968843 L71.8813032,90.8004451 C71.2045109,96.5341246 83.0000352,136.669881 83.0000352,136.669881 C83.0000352,136.669881 123.510894,234.531157 130.95561,249.108309 C138.400326,263.68546 149.519058,264.074184 149.519058,264.074184 L187.999539,270.196588 L332.156316,281.469585 L517.694114,300.031157 L518.66096,300.128338 L528.716161,301.197329 L596.685453,308 L658.370244,297.310089 L675,294.686202" id="Shape" class="vbuTwEPm_12"></path>
                    <path d="M122,263 C122,263 131.021164,273.631651 146.153439,278.282999 C146.153439,278.282999 169.627866,282.269868 192.035273,278.093148 C192.035273,278.093148 218.710758,274.580906 232,272.777322" id="Shape" class="vbuTwEPm_13"></path>
                    <path d="M580,293.927465 L650.571757,297 C650.571757,297 656.493183,295.51329 657.172691,288.079738 C657.172691,288.079738 655.522458,241.49615 667.268238,216.618531 C667.268238,216.618531 669.59798,209.383208 682.993994,208.68941 L728.326883,206.707129 C728.326883,206.707129 736.966342,206.112445 741.528753,220.483978 C741.528753,220.483978 750.362356,243.379316 746.479454,274.104662 C746.479454,274.104662 746.964816,278.465679 740.363882,278.961249 L672.218939,275.393144 L662.8029,278.267451 L739.004866,282.826695 C739.004866,282.826695 752.109663,282.628467 752.303808,272.915294 C752.303808,272.915294 757.254509,227.620187 740.752172,208.292954 C740.752172,208.292954 738.03414,201.354972 723.084965,202.04877 L676.004769,204.130165 C676.004769,204.130165 664.938497,205.022191 660.376086,219.591952 C660.376086,219.591952 653.386861,236.441335 650.377612,279.159477 L649.892249,288.87265 C649.892249,288.87265 650.960047,294.720378 637.369888,292.242527 L590.095547,290.161133 L580,293.927465 Z" id="Shape" class="vbuTwEPm_14"></path>
                </g>
            </g>
        </g>
    </g>
<style data-made-with="vivus-instant">.vbuTwEPm_0{stroke-dasharray:739 741;stroke-dashoffset:740;animation:vbuTwEPm_draw_0 8700ms linear 0ms infinite,vbuTwEPm_fade 8700ms linear 0ms infinite;}.vbuTwEPm_1{stroke-dasharray:2112 2114;stroke-dashoffset:2113;animation:vbuTwEPm_draw_1 8700ms linear 0ms infinite,vbuTwEPm_fade 8700ms linear 0ms infinite;}.vbuTwEPm_2{stroke-dasharray:792 794;stroke-dashoffset:793;animation:vbuTwEPm_draw_2 8700ms linear 0ms infinite,vbuTwEPm_fade 8700ms linear 0ms infinite;}.vbuTwEPm_3{stroke-dasharray:1067 1069;stroke-dashoffset:1068;animation:vbuTwEPm_draw_3 8700ms linear 0ms infinite,vbuTwEPm_fade 8700ms linear 0ms infinite;}.vbuTwEPm_4{stroke-dasharray:67 69;stroke-dashoffset:68;animation:vbuTwEPm_draw_4 8700ms linear 0ms infinite,vbuTwEPm_fade 8700ms linear 0ms infinite;}.vbuTwEPm_5{stroke-dasharray:14 16;stroke-dashoffset:15;animation:vbuTwEPm_draw_5 8700ms linear 0ms infinite,vbuTwEPm_fade 8700ms linear 0ms infinite;}.vbuTwEPm_6{stroke-dasharray:264 266;stroke-dashoffset:265;animation:vbuTwEPm_draw_6 8700ms linear 0ms infinite,vbuTwEPm_fade 8700ms linear 0ms infinite;}.vbuTwEPm_7{stroke-dasharray:189 191;stroke-dashoffset:190;animation:vbuTwEPm_draw_7 8700ms linear 0ms infinite,vbuTwEPm_fade 8700ms linear 0ms infinite;}.vbuTwEPm_8{stroke-dasharray:111 113;stroke-dashoffset:112;animation:vbuTwEPm_draw_8 8700ms linear 0ms infinite,vbuTwEPm_fade 8700ms linear 0ms infinite;}.vbuTwEPm_9{stroke-dasharray:643 645;stroke-dashoffset:644;animation:vbuTwEPm_draw_9 8700ms linear 0ms infinite,vbuTwEPm_fade 8700ms linear 0ms infinite;}.vbuTwEPm_10{stroke-dasharray:259 261;stroke-dashoffset:260;animation:vbuTwEPm_draw_10 8700ms linear 0ms infinite,vbuTwEPm_fade 8700ms linear 0ms infinite;}.vbuTwEPm_11{stroke-dasharray:536 538;stroke-dashoffset:537;animation:vbuTwEPm_draw_11 8700ms linear 0ms infinite,vbuTwEPm_fade 8700ms linear 0ms infinite;}.vbuTwEPm_12{stroke-dasharray:770 772;stroke-dashoffset:771;animation:vbuTwEPm_draw_12 8700ms linear 0ms infinite,vbuTwEPm_fade 8700ms linear 0ms infinite;}.vbuTwEPm_13{stroke-dasharray:116 118;stroke-dashoffset:117;animation:vbuTwEPm_draw_13 8700ms linear 0ms infinite,vbuTwEPm_fade 8700ms linear 0ms infinite;}.vbuTwEPm_14{stroke-dasharray:776 778;stroke-dashoffset:777;animation:vbuTwEPm_draw_14 8700ms linear 0ms infinite,vbuTwEPm_fade 8700ms linear 0ms infinite;}@keyframes vbuTwEPm_draw{100%{stroke-dashoffset:0;}}@keyframes vbuTwEPm_fade{0%{stroke-opacity:1;}95.40229885057471%{stroke-opacity:1;}100%{stroke-opacity:0;}}@keyframes vbuTwEPm_draw_0{9.195402298850574%{stroke-dashoffset: 740}36.015325670498086%{ stroke-dashoffset: 0;}100%{ stroke-dashoffset: 0;}}@keyframes vbuTwEPm_draw_1{10.153256704980844%{stroke-dashoffset: 2113}36.973180076628346%{ stroke-dashoffset: 0;}100%{ stroke-dashoffset: 0;}}@keyframes vbuTwEPm_draw_2{11.111111111111112%{stroke-dashoffset: 793}37.93103448275862%{ stroke-dashoffset: 0;}100%{ stroke-dashoffset: 0;}}@keyframes vbuTwEPm_draw_3{12.068965517241379%{stroke-dashoffset: 1068}38.888888888888886%{ stroke-dashoffset: 0;}100%{ stroke-dashoffset: 0;}}@keyframes vbuTwEPm_draw_4{13.026819923371649%{stroke-dashoffset: 68}39.84674329501915%{ stroke-dashoffset: 0;}100%{ stroke-dashoffset: 0;}}@keyframes vbuTwEPm_draw_5{13.984674329501917%{stroke-dashoffset: 15}40.804597701149426%{ stroke-dashoffset: 0;}100%{ stroke-dashoffset: 0;}}@keyframes vbuTwEPm_draw_6{14.942528735632186%{stroke-dashoffset: 265}41.76245210727969%{ stroke-dashoffset: 0;}100%{ stroke-dashoffset: 0;}}@keyframes vbuTwEPm_draw_7{15.900383141762454%{stroke-dashoffset: 190}42.72030651340996%{ stroke-dashoffset: 0;}100%{ stroke-dashoffset: 0;}}@keyframes vbuTwEPm_draw_8{16.85823754789272%{stroke-dashoffset: 112}43.67816091954023%{ stroke-dashoffset: 0;}100%{ stroke-dashoffset: 0;}}@keyframes vbuTwEPm_draw_9{17.81609195402299%{stroke-dashoffset: 644}44.6360153256705%{ stroke-dashoffset: 0;}100%{ stroke-dashoffset: 0;}}@keyframes vbuTwEPm_draw_10{18.77394636015326%{stroke-dashoffset: 260}45.593869731800766%{ stroke-dashoffset: 0;}100%{ stroke-dashoffset: 0;}}@keyframes vbuTwEPm_draw_11{19.731800766283524%{stroke-dashoffset: 537}46.55172413793103%{ stroke-dashoffset: 0;}100%{ stroke-dashoffset: 0;}}@keyframes vbuTwEPm_draw_12{20.689655172413794%{stroke-dashoffset: 771}47.5095785440613%{ stroke-dashoffset: 0;}100%{ stroke-dashoffset: 0;}}@keyframes vbuTwEPm_draw_13{21.647509578544064%{stroke-dashoffset: 117}48.467432950191565%{ stroke-dashoffset: 0;}100%{ stroke-dashoffset: 0;}}@keyframes vbuTwEPm_draw_14{22.60536398467433%{stroke-dashoffset: 777}49.42528735632184%{ stroke-dashoffset: 0;}100%{ stroke-dashoffset: 0;}}</style></svg>