<?xml version="1.0" encoding="UTF-8"?>
<svg width="19px" height="12px" viewBox="0 0 19 12" version="1.1" xmlns="http://www.w3.org/2000/svg" xmlns:xlink="http://www.w3.org/1999/xlink">
    <!-- Generator: Sketch 50.2 (55047) - http://www.bohemiancoding.com/sketch -->
    <title>Shape</title>
    <desc>Created with Sketch.</desc>
    <defs></defs>
    <g id="Adjustable-beds-1" stroke="none" stroke-width="1" fill="none" fill-rule="evenodd">
        <g id="Adjustable-beds" transform="translate(-753.000000, -5315.000000)" fill="#3F95B5" fill-rule="nonzero">
            <g id="COMPARISON-SHEET" transform="translate(142.000000, 3974.000000)">
                <g id="button" transform="translate(485.000000, 1321.000000)">
                    <path d="M144.511548,25.3171353 L138.896035,20.5264076 C138.638487,20.3065639 138.249086,20.3353626 138.027275,20.589278 C137.804643,20.8435991 137.832985,21.2277172 138.090532,21.447561 L142.394897,25.1191948 L127.05626,25.1191948 C126.71615,25.1191948 126.440118,25.391363 126.440118,25.7276184 C126.440118,26.0638739 126.71615,26.336042 127.05626,26.336042 L142.549753,26.336042 L140.096278,28.4983796 L138.179667,29.9951018 C137.913083,30.2035883 137.867489,30.5860839 138.07862,30.8497341 C138.200205,31.0014344 138.380529,31.0805295 138.562497,31.0805295 C138.696405,31.0805295 138.831134,31.0379399 138.944504,30.94911 L140.888636,29.4288622 L144.518942,26.2309876 C144.651207,26.1145758 144.726376,25.9474622 144.725144,25.7722361 C144.723501,25.5974158 144.646278,25.4315189 144.511548,25.3171353 Z" id="Shape"></path>
                </g>
            </g>
        </g>
    </g>
</svg>