<svg aria-hidden="true" style="position: absolute; width: 0; height: 0; overflow: hidden;" version="1.1" xmlns="http://www.w3.org/2000/svg" xmlns:xlink="http://www.w3.org/1999/xlink">
<defs>
	<symbol id="icon-button-arrow" viewBox="0 0 38 32">
		<title>button-arrow</title>
		<path fill="#575656" style="fill: var(--color1, #575656)" d="M0 0l19.485 30.839 18.162-30.839z"></path>
	</symbol>
	<symbol id="icon-button-arrow-white" viewBox="0 0 51 32">
		<title>button-arrow-white</title>
		<path fill="#3f95b5" style="fill: var(--color2, #3f95b5)" d="M49.364 14.179l-14.975-12.775c-0.687-0.586-1.725-0.509-2.317 0.168-0.594 0.678-0.518 1.702 0.169 2.289l11.478 9.791h-40.903c-0.907 0-1.643 0.726-1.643 1.622s0.736 1.622 1.643 1.622h41.316l-6.543 5.766-5.111 3.991c-0.711 0.556-0.832 1.576-0.269 2.279 0.324 0.405 0.805 0.615 1.29 0.615 0.357 0 0.716-0.114 1.019-0.35l5.184-4.054 9.681-8.528c0.353-0.31 0.553-0.756 0.55-1.223-0.004-0.466-0.21-0.909-0.57-1.214z"></path>
	</symbol>
	<symbol id="icon-check" viewBox="0 0 32 32">
		<title>check</title>
		<path fill="#3f95b5" style="fill: var(--color2, #3f95b5)" d="M10.216 11.968l-2.597 2.307 7.802 8.582 16.579-19.085-2.649-2.248-13.989 16.103z"></path>
		<path fill="#3f95b5" style="fill: var(--color2, #3f95b5)" d="M27.719 12.015c0.435 1.279 0.655 2.62 0.655 3.985 0 6.823-5.551 12.374-12.374 12.374s-12.374-5.551-12.374-12.374c0-6.823 5.551-12.374 12.374-12.374 2.229 0 4.413 0.598 6.315 1.731l1.854-3.116c-2.463-1.466-5.288-2.24-8.169-2.24-8.823 0-16 7.178-16 16s7.177 16 16 16c8.823 0 16-7.178 16-16 0-1.763-0.285-3.496-0.848-5.152l-3.433 1.167z"></path>
	</symbol>
	<symbol id="icon-close" viewBox="0 0 32 32">
		<title>close</title>
		<path fill="#f00" style="fill: var(--color3, #f00)" d="M16 0c-8.823 0-16 7.177-16 16s7.177 16 16 16c8.823 0 16-7.177 16-16s-7.177-16-16-16zM16 29.333c-7.352 0-13.333-5.981-13.333-13.333s5.981-13.333 13.333-13.333c7.352 0 13.333 5.981 13.333 13.333s-5.981 13.333-13.333 13.333zM23.609 8.391c-0.521-0.521-1.364-0.521-1.885 0l-5.724 5.724-5.724-5.724c-0.521-0.521-1.364-0.521-1.885 0s-0.521 1.364 0 1.885l5.724 5.724-5.724 5.724c-0.521 0.521-0.521 1.364 0 1.885 0.26 0.26 0.601 0.391 0.943 0.391s0.683-0.131 0.943-0.391l5.724-5.724 5.724 5.724c0.26 0.26 0.601 0.391 0.943 0.391s0.683-0.131 0.943-0.391c0.521-0.521 0.521-1.364 0-1.885l-5.724-5.724 5.724-5.724c0.521-0.521 0.521-1.364 0-1.885z"></path>
	</symbol>
	<symbol id="icon-download" viewBox="0 0 32 32">
		<title>download</title>
		<path fill="#fff" style="fill: var(--color4, #fff)" d="M30.712 15.040c-0.53 0-0.96 0.429-0.96 0.96v13.752h-27.503v-13.752c0-0.531-0.429-0.96-0.96-0.96s-0.96 0.429-0.96 0.96v14.712c0 0.53 0.429 0.96 0.96 0.96h29.424c0.53 0 0.96-0.43 0.96-0.96v-14.712c-0.001-0.531-0.431-0.96-0.961-0.96zM23.394 15.021c-0.246 0-0.492 0.093-0.679 0.281l-5.736 5.736v-19.75c0-0.53-0.43-0.96-0.96-0.96s-0.96 0.43-0.96 0.96v19.75l-5.755-5.756c-0.188-0.188-0.433-0.281-0.679-0.281s-0.492 0.093-0.679 0.281c-0.375 0.374-0.375 0.982 0 1.358l7.393 7.393c0.090 0.090 0.196 0.161 0.314 0.209 0.005 0.002 0.010 0.003 0.015 0.004 0.108 0.043 0.226 0.068 0.35 0.068s0.242-0.025 0.351-0.068c0.004-0.002 0.010-0.003 0.013-0.004 0.119-0.049 0.227-0.12 0.316-0.21l7.373-7.373c0.375-0.375 0.375-0.983 0-1.358-0.186-0.187-0.431-0.281-0.677-0.281z"></path>
	</symbol>
	<symbol id="icon-Head--Foot-Controls" viewBox="0 0 68 32">
		<title>Head--Foot-Controls</title>
		<path fill="#fff" style="fill: var(--color4, #fff)" d="M61.315 9.702h-11.265l-8.36 5.49h-12.674l-18.765-11.996c-1.966-1.255-4.594-0.71-5.874 1.219l-1.855 2.796 23.392 14.952c0.225 0.177 0.475 0.354 0.76 0.531h17.036l7.865-5.49h13.989v-3.337c0-2.302-1.903-4.166-4.248-4.166z"></path>
		<path fill="#3f3f43" style="fill: var(--color5, #3f3f43)" d="M63.115 10.794v-0.678h-11.637l-8.486 5.807h-12.467l-18.882-12.577c-0.833-0.556-1.778-0.824-2.708-0.824-1.622 0-3.215 0.814-4.166 2.308l-2.247 3.527 24.296 16.185 0.364-0.566-0.415 0.528c0.246 0.205 0.525 0.407 0.835 0.609l0.161 0.104h17.691l7.983-5.807h14.647v-4.209c-0.003-2.809-2.224-5.084-4.97-5.084v1.355c1.012 0 1.916 0.415 2.58 1.092 0.658 0.678 1.068 1.603 1.068 2.637v2.852h-13.748l-7.983 5.807h-17.079v0.678l0.356-0.571c-0.269-0.174-0.505-0.344-0.715-0.521l-0.026-0.018-23.215-15.467 1.522-2.389c0.702-1.1 1.868-1.694 3.059-1.696 0.684 0 1.371 0.195 1.988 0.607l19.21 12.797h13.261l8.486-5.807h11.235v-0.678z"></path>
		<path fill="#fff" style="fill: var(--color4, #fff)" d="M22.725 12.608l-13.118-8.589 1.282-1.973c1.355-2.086 4.142-2.674 6.215-1.314l5.594 3.662c2.081 1.359 2.663 4.153 1.308 6.239l-1.282 1.975z"></path>
		<path fill="#3f3f43" style="fill: var(--color5, #3f3f43)" d="M22.411 14.192l0.367-0.569-13.362-8.831 0.993-1.55c0.789-1.221 2.099-1.884 3.436-1.884 0.771 0 1.546 0.217 2.239 0.675l5.936 3.922c1.202 0.797 1.856 2.124 1.856 3.485 0 0.779-0.215 1.563-0.665 2.266l-1.363 2.114 0.561 0.372 0.561 0.369 1.36-2.117c0.597-0.926 0.884-1.975 0.884-3.004 0-1.798-0.871-3.563-2.469-4.62l-5.934-3.922c-0.915-0.604-1.947-0.898-2.968-0.898-1.771 0-3.511 0.885-4.553 2.501l-1.727 2.686 15.040 9.943 0.367-0.569-0.561-0.369z"></path>
		<path fill="#3f3f43" style="fill: var(--color5, #3f3f43)" d="M0 31.614h65.563v-1.354h-65.563z"></path>
		<path fill="#3f3f43" style="fill: var(--color5, #3f3f43)" d="M1.362 11.872l24.902 16.548h20.811l7.452-5.356h12.399v-1.318h-12.807l-7.449 5.356h-20.025l-24.581-16.334z"></path>
	</symbol>
	<symbol id="icon-minus" viewBox="0 0 168 32">
		<title>minus</title>
		<path fill="#575656" style="fill: var(--color1, #575656)" d="M148.63 29.397c8.112-0.195 14.529-7.069 14.301-15.246-0.358-8.112-7.102-14.464-15.246-14.139h-130.472c-8.112 0.195-14.529 7.069-14.269 15.148 0.261 8.144 7.069 14.464 15.181 14.236h130.504z"></path>
	</symbol>
	<symbol id="icon-One-touch-Flat-Position" viewBox="0 0 94 32">
		<title>One-touch-Flat-Position</title>
		<path fill="#3f3f43" style="fill: var(--color5, #3f3f43)" d="M0 31.482h94.118v-2.071h-94.118z"></path>
		<path fill="#3f3f43" style="fill: var(--color5, #3f3f43)" d="M0 25.6h94.118v-2.071h-94.118z"></path>
		<path fill="#fff" style="fill: var(--color4, #fff)" d="M94.118 17.647h-94.118v-2.701c0-5.003 4.045-9.063 9.036-9.063h76.040c4.991 0 9.042 4.061 9.042 9.063v2.701z"></path>
		<path fill="#3f3f43" style="fill: var(--color5, #3f3f43)" d="M93.138 16.788v-0.859h-91.178v-1.449c0-1.903 0.874-3.621 2.306-4.865 1.432-1.249 3.391-2.020 5.562-2.020h74.456c2.177 0 4.142 0.771 5.568 2.020 1.426 1.244 2.306 2.962 2.306 4.865v2.308h1.96v-2.308c0-4.748-4.4-8.598-9.834-8.598h-74.456c-5.427 0-9.828 3.85-9.828 8.598v3.167h94.118v-0.859h-0.98z"></path>
		<path fill="#fff" style="fill: var(--color4, #fff)" d="M29.412 11.765h-23.529v-4.702c0-3.901 2.759-7.063 6.17-7.063h11.19c3.411 0 6.17 3.162 6.17 7.063v4.702z"></path>
		<path fill="#3f3f43" style="fill: var(--color5, #3f3f43)" d="M28.301 10.849v-0.916h-20.902v-3.056c0-1.395 0.54-2.65 1.416-3.571 0.876-0.916 2.082-1.478 3.419-1.478h10.357c1.337 0 2.543 0.562 3.419 1.478 0.876 0.921 1.416 2.176 1.416 3.571v3.972h1.751v-3.972c0-3.8-2.947-6.877-6.586-6.877h-10.357c-3.639 0-6.586 3.077-6.586 6.877v4.888h23.529v-0.916h-0.876z"></path>
	</symbol>
	<symbol id="icon-plus" viewBox="0 0 32 32">
		<title>plus</title>
		<path fill="#575656" style="fill: var(--color1, #575656)" d="M28.95 13.071h-9.975v-10.203c-0.033-1.622-1.407-2.912-3.023-2.867-1.635 0.065-2.906 1.427-2.873 3.049v10.021h-10.229c-1.622 0.046-2.899 1.401-2.847 3.036 0.046 1.622 1.407 2.893 3.030 2.847h10.047v10.197c0.072 1.635 1.42 2.919 3.056 2.86 1.629-0.059 2.899-1.427 2.841-3.049v-10.008h10.171c1.622-0.046 2.899-1.407 2.854-3.043-0.059-1.616-1.42-2.899-3.049-2.841z"></path>
	</symbol>
	<symbol id="icon-programeble-2" viewBox="0 0 76 32">
		<title>programeble-2</title>
		<path fill="#575656" style="fill: var(--color1, #575656)" d="M6.538 1.584c0.82 0 1.57 0.45 2.13 1.23 0.41 0.66 10.14 16.050 12.51 18.72 2.15 2.4 4.42 2.75 6.58 2.75 0.32 0 0.64-0.010 0.93-0.020l0.88-0.010h7.54c2.34 0 4.58-0.99 6.44-2.86l7.090-7.1c1.57-1.57 2.77-2.15 4.37-2.15 0.56 0 1.22 0.060 2.070 0.23l15.57 2.78c0.76 0.12 1.43 0.51 1.89 1.14 0.45 0.61 0.64 1.37 0.52 2.14-0.22 1.41-1.4 2.44-2.84 2.44-0.14 0-0.3-0.010-0.43-0.030 0 0-11.67-1.97-13.84-2.35-0.79-0.14-1.27-0.19-1.71-0.19-1.35 0-2.080 0.63-3.13 1.67-1.44 1.43-7.060 7.060-7.060 7.060-2.030 2.030-4.52 2.97-7.83 2.97h-12.43c-4.44 0-8.22-2.44-9.56-4.8l-12.070-18.61c-1.16-1.96-0.98-3.28 0.7-4.44 0.55-0.37 1.12-0.57 1.68-0.57z"></path>
	</symbol>
	<symbol id="icon-Programmable-Position" viewBox="0 0 76 32">
		<title>Programmable-Position</title>
		<path fill="#fff" style="fill: var(--color4, #fff)" d="M71.574 11.943h-12.257l-9.091 6.22h-13.786l-20.411-13.587c-2.14-1.423-4.995-0.807-6.389 1.381l-2.020 3.164 25.448 16.942c0.244 0.199 0.513 0.402 0.828 0.604h18.53l8.555-6.22h15.21v-3.783c0-2.609-2.065-4.72-4.617-4.72z"></path>
		<path fill="#3f3f43" style="fill: var(--color5, #3f3f43)" d="M70.701 12.14v-0.683h-12.843l-9.368 5.852h-13.765l-20.845-12.668c-0.923-0.561-1.965-0.831-2.992-0.831-1.787 0-3.547 0.82-4.601 2.327l-2.478 3.55 26.824 16.3 0.401-0.572-0.459 0.532c0.274 0.205 0.579 0.41 0.923 0.611l0.181 0.108h19.524l8.813-5.852h16.174v-4.237c0-2.827-2.459-5.122-5.489-5.122v1.367c1.116 0 2.119 0.421 2.849 1.101s1.177 1.615 1.177 2.654v2.874h-15.174l-8.813 5.848h-18.853v0.683l0.39-0.579c-0.297-0.176-0.556-0.349-0.787-0.522l-0.031-0.022-25.627-15.57 1.683-2.41c0.772-1.108 2.057-1.708 3.374-1.708 0.753 0 1.513 0.198 2.193 0.611l21.207 12.887h14.641l9.368-5.848h12.403v-0.683z"></path>
		<path fill="#fff" style="fill: var(--color4, #fff)" d="M27.943 15.238l-16.514-10.38 1.616-2.385c1.708-2.518 5.212-3.232 7.828-1.588l7.037 4.424c2.616 1.644 3.353 5.021 1.649 7.543l-1.616 2.385z"></path>
		<path fill="#3f3f43" style="fill: var(--color5, #3f3f43)" d="M27.449 14.292l0.396-0.572-14.421-8.895 1.078-1.558c0.845-1.234 2.258-1.9 3.705-1.9 0.83 0 1.668 0.22 2.414 0.68l6.405 3.951c1.299 0.802 2.007 2.141 2.007 3.508 0 0.788-0.232 1.576-0.716 2.285l-1.474 2.127 1.211 0.748 1.466-2.134c0.647-0.932 0.956-1.986 0.956-3.026 0-1.81-0.937-3.587-2.662-4.652l-6.405-3.951c-0.99-0.608-2.102-0.903-3.203-0.903-1.912 0-3.793 0.889-4.916 2.522l-1.862 2.699 16.23 10.017 0.396-0.572-0.605-0.374z"></path>
		<path fill="#3f3f43" style="fill: var(--color5, #3f3f43)" d="M3.81 31.92h72.381v-1.444h-72.381z"></path>
		<path fill="#3f3f43" style="fill: var(--color5, #3f3f43)" d="M3.81 12.618l27.493 17.858h22.977l8.223-5.777h13.688v-1.422h-14.139l-8.223 5.78h-22.11l-27.137-17.63z"></path>
		<path fill="#3f3f43" style="fill: var(--color5, #3f3f43)" d="M0 24.188l24.259 6.288h51.931v-1.378h-51.743l-24.075-6.241z"></path>
	</symbol>
	<symbol id="icon-programmeble" viewBox="0 0 128 32">
		<title>programmeble</title>
		<path fill="#575656" style="fill: var(--color1, #575656)" d="M4.798 0c-1.73 0-3.378 0.997-4.21 2.578-0.599 1.186-0.765 2.509-0.383 3.764 0.366 1.255 1.181 2.303 2.313 2.922l29.267 16.397c4.592 1.959 8.719 3.73 15.557 3.73h22.362c5.225 0 9.684-1.598 14.426-5.242 0.183-0.155 4.858-3.712 9.234-6.445 3.045-1.856 5.84-2.303 10.249-1.53 3.627 0.67 18.386 4.245 19.018 4.383 0.116 0.017 0.366 0.034 0.632 0.034 2.313 0 4.343-1.77 4.675-4.159 0.2-1.306-0.1-2.595-0.849-3.695-0.765-1.048-1.88-1.736-3.145-1.942l-19.234-4.366c-6.905-1.323-12.080-0.361-17.204 3.042-0.050 0.034-5.591 3.352-8.818 5.414-4.742 3.094-8.902 4.675-12.362 4.675h-14.010c-4.259 0-11.397 0-16.439-2.819-5.125-2.887-28.785-16.139-28.785-16.139-0.732-0.395-1.514-0.602-2.296-0.602z"></path>
	</symbol>
	<symbol id="icon-top-arrow" viewBox="0 0 38 32">
		<title>top-arrow</title>
		<path fill="#575656" style="fill: var(--color1, #575656)" d="M0 30.839l19.485-30.839 18.162 30.839z"></path>
	</symbol>
	<symbol id="icon-TXL" viewBox="0 0 47 32">
		<title>TXL</title>
		<path fill="#575656" style="fill: var(--color1, #575656)" d="M0 30.839l19.485-30.839 18.162 30.839z"></path>
	</symbol>
	<symbol id="icon-vew-icon" viewBox="0 0 51 32">
		<title>vew-icon</title>
		<path fill="#fff" style="fill: var(--color4, #fff)" d="M49.701 13.611c-0.98-1.392-9.744-13.353-24.438-13.353s-23.459 11.961-24.438 13.353c-0.773 1.083-0.773 2.578 0 3.764l0.103 0.155c2.269 3.093 10.672 13.147 24.335 13.147 14.694 0 23.459-11.961 24.438-13.353 0.773-1.083 0.773-2.629 0-3.712zM25.263 28.099c-12.477 0-20.159-9.28-22.221-12.116l-0.052-0.052c-0.155-0.309-0.206-0.619 0-0.876 0.876-1.237 8.868-12.219 22.273-12.219s21.396 10.982 22.273 12.219c0.155 0.258 0.155 0.567 0 0.825-0.876 1.289-8.868 12.219-22.273 12.219z"></path>
		<path fill="#fff" style="fill: var(--color4, #fff)" d="M25.263 4.743c-5.929 0-10.724 4.795-10.724 10.724s4.795 10.724 10.724 10.724c5.929 0 10.724-4.795 10.724-10.724s-4.795-10.724-10.724-10.724zM25.263 23.613c-4.486 0-8.146-3.661-8.146-8.146s3.661-8.146 8.146-8.146c4.486 0 8.146 3.661 8.146 8.146s-3.661 8.146-8.146 8.146z"></path>
	</symbol>
		<symbol id="icon-Wireless-Remote" viewBox="0 0 16 32">
		<title>Wireless-Remote</title>
		<path fill="#3f3f43" style="fill: var(--color5, #3f3f43)" d="M11.752 8.764c-1.12-1.046-2.541-1.563-3.958-1.563-1.548 0-3.094 0.617-4.235 1.838l0.699 0.653c0.955-1.022 2.242-1.534 3.537-1.536 1.184 0 2.369 0.433 3.307 1.306l0.651-0.699z"></path>
		<path fill="#3f3f43" style="fill: var(--color5, #3f3f43)" d="M13.303 6.169c-1.548-1.548-3.584-2.323-5.616-2.323-2.043 0-4.096 0.782-5.657 2.347l0.675 0.675c1.378-1.378 3.18-2.067 4.982-2.067 1.792 0 3.575 0.68 4.941 2.043l0.675-0.675z"></path>
		<path fill="#3f3f43" style="fill: var(--color5, #3f3f43)" d="M15.35 3.438c-2.122-2.125-4.905-3.187-7.683-3.187-2.78 0-5.563 1.062-7.688 3.187l0.677 0.675c1.941-1.938 4.475-2.905 7.011-2.905s5.070 0.967 7.009 2.905l0.675-0.675z"></path>
		<path fill="#fff" style="fill: var(--color4, #fff)" d="M10.782 31.094h-6.231c-0.677 0-1.228-0.55-1.228-1.228v-17.109c0-0.675 0.55-1.228 1.228-1.228h6.231c0.675 0 1.228 0.553 1.228 1.228v17.109c0 0.677-0.553 1.228-1.228 1.228z"></path>
		<path fill="#3f3f43" style="fill: var(--color5, #3f3f43)" d="M10.782 31.094v-0.373h-6.231c-0.234 0-0.447-0.093-0.603-0.251-0.158-0.156-0.254-0.369-0.254-0.603v-17.109c0-0.237 0.096-0.447 0.254-0.605 0.156-0.156 0.369-0.251 0.603-0.251h6.231c0.237 0 0.447 0.096 0.605 0.251 0.153 0.158 0.249 0.368 0.249 0.605v17.109c0 0.235-0.096 0.447-0.249 0.603-0.158 0.158-0.368 0.251-0.605 0.251v0.744c0.883-0.002 1.598-0.718 1.601-1.598v-17.109c-0.002-0.883-0.718-1.598-1.601-1.601h-6.231c-0.883 0.002-1.596 0.718-1.598 1.601v17.109c0.002 0.881 0.715 1.596 1.598 1.598h6.231v-0.371z"></path>
		<path fill="#fff" style="fill: var(--color4, #fff)" d="M10.093 17.612c0 1.342-1.086 2.426-2.426 2.426s-2.426-1.084-2.426-2.426c0-1.34 1.086-2.426 2.426-2.426s2.426 1.086 2.426 2.426z"></path>
		<path fill="#3f3f43" style="fill: var(--color5, #3f3f43)" d="M10.093 17.612h-0.373c0 0.567-0.23 1.082-0.601 1.452-0.371 0.373-0.883 0.601-1.452 0.603-0.567-0.002-1.079-0.23-1.452-0.603-0.371-0.371-0.601-0.885-0.601-1.452s0.23-1.079 0.601-1.452c0.373-0.373 0.885-0.601 1.452-0.601 0.569 0 1.082 0.227 1.452 0.601s0.601 0.885 0.601 1.452h0.744c0-1.546-1.251-2.797-2.797-2.797-1.543 0-2.8 1.251-2.8 2.797s1.256 2.797 2.8 2.797c1.546 0 2.797-1.251 2.797-2.797h-0.371z"></path>
		<path fill="#3f3f43" style="fill: var(--color5, #3f3f43)" d="M7.13 24.792c0 0.447-0.361 0.811-0.811 0.811-0.447 0-0.811-0.364-0.811-0.811s0.364-0.811 0.811-0.811c0.45 0 0.811 0.364 0.811 0.811z"></path>
		<path fill="#3f3f43" style="fill: var(--color5, #3f3f43)" d="M9.824 24.792c0 0.447-0.361 0.811-0.811 0.811-0.447 0-0.814-0.364-0.814-0.811s0.366-0.811 0.814-0.811c0.45 0 0.811 0.364 0.811 0.811z"></path>
		<path fill="#3f3f43" style="fill: var(--color5, #3f3f43)" d="M7.13 27.364c0 0.447-0.361 0.811-0.811 0.811-0.447 0-0.811-0.364-0.811-0.811s0.364-0.811 0.811-0.811c0.45 0 0.811 0.364 0.811 0.811z"></path>
		<path fill="#3f3f43" style="fill: var(--color5, #3f3f43)" d="M9.824 27.364c0 0.447-0.361 0.811-0.811 0.811-0.447 0-0.814-0.364-0.814-0.811s0.366-0.811 0.814-0.811c0.45 0 0.811 0.364 0.811 0.811z"></path>
		<path fill="#3f3f43" style="fill: var(--color5, #3f3f43)" d="M8.667 17.612c0 0.553-0.447 1-1 1s-1-0.447-1-1c0-0.553 0.447-1 1-1s1 0.447 1 1z"></path>
	</symbol>
	<symbol id="icon-Zero-Clearance" viewBox="0 0 68 32">
		<title>Zero-Clearance</title>
		<path fill="#3f3f43" style="fill: var(--color5, #3f3f43)" d="M0 17.426h68.085v-1.406h-68.085z"></path>
		<path fill="#fff" style="fill: var(--color4, #fff)" d="M64.080 12.015h-64.080v-1.26c0-3.728 3.015-6.75 6.729-6.75h50.622c3.714 0 6.729 3.022 6.729 6.75v1.26z"></path>
		<path fill="#3f3f43" style="fill: var(--color5, #3f3f43)" d="M67.374 11.432v-0.583h-65.955v-0.493c0-1.433 0.703-2.726 1.84-3.665 1.141-0.94 2.707-1.516 4.449-1.516h52.665c1.738 0 3.308 0.576 4.449 1.516s1.84 2.232 1.84 3.665v1.076h1.423v-1.076c-0.004-3.505-3.455-6.351-7.712-6.351h-52.665c-4.261 0-7.708 2.846-7.708 6.351v1.659h68.085v-0.583h-0.712z"></path>
		<path fill="#fff" style="fill: var(--color4, #fff)" d="M22.468 8.010h-17.101v-2.749c0-2.909 2.198-5.261 4.907-5.261h7.291c2.709 0 4.903 2.353 4.903 5.261v2.749z"></path>
		<path fill="#3f3f43" style="fill: var(--color5, #3f3f43)" d="M23.282 7.385v-0.622h-17.79v-1.698c0-1.059 0.512-2.007 1.341-2.7s1.969-1.119 3.233-1.119h7.902c1.264 0 2.399 0.426 3.233 1.119 0.825 0.693 1.337 1.641 1.337 2.7v2.32h1.492v-2.32c0-2.799-2.713-5.065-6.062-5.065h-7.902c-3.349 0-6.062 2.266-6.062 5.065v2.945h20.025v-0.625h-0.748z"></path>
		<path fill="#3f3f43" style="fill: var(--color5, #3f3f43)" d="M0 29.441h68.085v-1.406h-68.085z"></path>
		<path fill="#3f3f43" style="fill: var(--color5, #3f3f43)" d="M32.040 28.035h1.39v-8.010h-1.39z"></path>
		<path fill="#3f3f43" style="fill: var(--color5, #3f3f43)" d="M36.045 28.035l-2.002 3.637-2.002-3.637z"></path>
		<path fill="#3f3f43" style="fill: var(--color5, #3f3f43)" d="M36.045 19.657l-2.002-3.637-2.002 3.637z"></path>
	</symbol>
	<symbol id="icon-Zero-G" viewBox="0 0 80 32">
		<title>Zero-G</title>
		<path fill="#fff" style="fill: var(--color4, #fff)" d="M74.614 12.54h-14.297l-10.611 6.534h-16.082l-23.813-14.271c-2.49-1.491-5.829-0.845-7.457 1.447l-2.353 3.33 29.687 17.789c0.286 0.209 0.604 0.422 0.967 0.632h21.613l9.983-6.53h17.75v-3.973c0-2.736-2.413-4.956-5.386-4.956z"></path>
		<path fill="#3f3f43" style="fill: var(--color5, #3f3f43)" d="M73.934 14.205v-0.836h-14.196l-10.355 7.163h-15.211l-23.038-15.511c-1.014-0.689-2.17-1.021-3.302-1.021-1.981 0-3.924 1.005-5.087 2.85l-2.744 4.35 29.647 19.972 0.444-0.701-0.503 0.652c0.299 0.25 0.637 0.5 1.018 0.746l0.197 0.131h21.587l9.738-7.167h17.872v-5.191c0-3.465-2.713-6.273-6.066-6.273v1.673c1.227 0 2.339 0.513 3.145 1.349 0.806 0.832 1.305 1.98 1.305 3.251v3.518h-16.771l-9.742 7.167h-20.836v0.836l0.429-0.709c-0.326-0.213-0.609-0.426-0.869-0.636l-0.031-0.029-28.322-19.078 1.856-2.948c0.853-1.357 2.276-2.091 3.735-2.091 0.83 0 1.667 0.242 2.422 0.746l23.439 15.786h16.182l10.355-7.163h13.705v-0.836z"></path>
		<path fill="#fff" style="fill: var(--color4, #fff)" d="M24.752 20l-15.952-13.622 1.561-3.135c1.647-3.307 5.031-4.237 7.561-2.082l6.801 5.812c2.526 2.155 3.238 6.585 1.587 9.892l-1.558 3.135z"></path>
		<path fill="#3f3f43" style="fill: var(--color5, #3f3f43)" d="M24.823 18.76l0.413-0.747-15.143-11.684 1.131-2.044c0.892-1.618 2.373-2.492 3.895-2.492 0.873 0 1.747 0.286 2.535 0.892l6.722 5.187c1.367 1.055 2.108 2.813 2.108 4.607 0 1.029-0.243 2.066-0.752 2.993l-1.544 2.8 0.634 0.488 0.638 0.488 1.54-2.796c0.674-1.226 1.002-2.611 0.999-3.974 0.004-2.378-0.984-4.712-2.793-6.106l-6.726-5.191c-1.039-0.796-2.207-1.182-3.361-1.182-2.008 0-3.984 1.169-5.163 3.305l-1.957 3.552 17.044 13.143 0.416-0.752-0.638-0.488z"></path>
	</symbol>
	<symbol id="icon-Zero-G-white" viewBox="0 0 53 32">
		<title>Zero-G-white</title>
		<path fill="#3f3f43" style="fill: var(--color5, #3f3f43)" d="M24.823 18.76l0.413-0.747-15.143-11.684 1.131-2.044c0.892-1.618 2.373-2.492 3.895-2.492 0.873 0 1.747 0.286 2.535 0.892l6.722 5.187c1.367 1.055 2.108 2.813 2.108 4.607 0 1.029-0.243 2.066-0.752 2.993l-1.544 2.8 0.634 0.488 0.638 0.488 1.54-2.796c0.674-1.226 1.002-2.611 0.999-3.974 0.004-2.378-0.984-4.712-2.793-6.106l-6.726-5.191c-1.039-0.796-2.207-1.182-3.361-1.182-2.008 0-3.984 1.169-5.163 3.305l-1.957 3.552 17.044 13.143 0.416-0.752-0.638-0.488z"></path>
	</symbol>
	<symbol id="icon-comments" viewBox="0 0 41 32">
		<title>comments</title>
		<path d="M15.232 13.783c0 0.806-0.839 1.454-1.882 1.454s-1.882-0.648-1.882-1.454c0-0.806 0.839-1.454 1.882-1.454s1.882 0.648 1.882 1.454zM20.87 12.329c-1.043 0-1.882 0.648-1.882 1.454s0.839 1.454 1.882 1.454c1.043 0 1.882-0.648 1.882-1.454s-0.839-1.454-1.882-1.454zM28.392 12.329c-1.043 0-1.882 0.648-1.882 1.454s0.839 1.454 1.882 1.454c1.043 0 1.882-0.648 1.882-1.454s-0.839-1.454-1.882-1.454zM35.204 31.492l-6.851-5.341h-22.995c-2.036 0-3.665-1.653-3.665-3.665v-17.126c0-2.036 1.653-3.665 3.665-3.665h31.259c2.036 0 3.665 1.653 3.665 3.665v17.102c0 2.036-1.653 3.665-3.665 3.665h-1.389l-0.024 5.365zM5.359 3.61c-0.958 0-1.749 0.79-1.749 1.749v17.102c0 0.958 0.79 1.749 1.749 1.749h24.049l3.856 2.922v-2.922h3.329c0.958 0 1.749-0.79 1.749-1.749v-17.102c0-0.958-0.79-1.749-1.749-1.749h-31.235z"></path>
	</symbol>
	<symbol id="icon-posted-by" viewBox="0 0 32 32">
		<title>posted-by</title>
		<path d="M16 1.55c-3.763 0-6.833 3.070-6.833 6.833s3.070 6.833 6.833 6.833c3.763 0 6.833-3.070 6.833-6.833s-3.070-6.833-6.833-6.833zM16 2.332c3.353 0 6.051 2.698 6.051 6.051s-2.698 6.051-6.051 6.051c-3.353 0-6.051-2.698-6.051-6.051s2.698-6.051 6.051-6.051zM16 18.236c-7.91 0-14.4 5.216-14.4 11.747 0 0.209 0.17 0.379 0.379 0.379h28.042c0.209-0 0.379-0.17 0.379-0.379 0-6.531-6.49-11.747-14.4-11.747zM16 18.993c7.415 0 13.342 4.761 13.595 10.611h-27.189c0.253-5.85 6.18-10.611 13.595-10.611z"></path>
	</symbol>
	<symbol id="icon-like" viewBox="0 0 32 32">
		<title>like</title>
		<path d="M28.794 10.885h-7.678v-5.759c0-5.724-8.318-7.038-8.318-1.92v3.839c0 2.112-1.728 3.839-3.839 3.839h-8.318c-0.384 0-0.64 0.256-0.64 0.64v19.836c0 0.384 0.256 0.64 0.64 0.64h28.154c1.792 0 3.199-1.408 3.199-3.199v-14.717c0-1.792-1.408-3.199-3.199-3.199zM1.28 12.164h7.038v18.556h-7.038v-18.556zM30.713 28.801c0 1.088-0.832 1.92-1.92 1.92h-19.196v-18.62c2.495-0.32 4.479-2.495 4.479-5.055v-3.839c0-3.287 5.759-2.146 5.759 1.92v6.399c0 0.384 0.256 0.64 0.64 0.64h8.318c1.088 0 1.92 0.832 1.92 1.92v14.717z"></path>
	</symbol>
	<symbol id="icon-view" viewBox="0 0 58 32">
		<title>view</title>
		<path d="M31.673 15.689c0 1.607-1.302 2.909-2.909 2.909s-2.909-1.302-2.909-2.909c0-1.607 1.302-2.909 2.909-2.909s2.909 1.302 2.909 2.909z"></path>
		<path d="M28.764 26.149c-5.767 0-10.46-4.692-10.46-10.46s4.692-10.46 10.46-10.46c5.767 0 10.46 4.692 10.46 10.46s-4.692 10.46-10.46 10.46zM28.764 7.845c-4.326 0-7.845 3.519-7.845 7.845s3.519 7.845 7.845 7.845c4.326 0 7.845-3.519 7.845-7.845s-3.519-7.845-7.845-7.845z"></path>
		<path d="M28.764 31.379c-9.671 0-17.894-4.278-28.382-14.765-0.244-0.245-0.382-0.578-0.382-0.924s0.138-0.679 0.383-0.924c10.487-10.488 18.71-14.765 28.381-14.765s17.894 4.277 28.382 14.765c0.511 0.511 0.511 1.338 0 1.849-10.488 10.487-18.71 14.765-28.382 14.765zM3.167 15.689c9.605 9.39 16.86 13.075 25.597 13.075s15.992-3.684 25.597-13.075c-9.605-9.39-16.86-13.075-25.597-13.075s-15.993 3.684-25.597 13.075z"></path>
	</symbol>
	<symbol id="icon-calendare" viewBox="0 0 29 32">
		<title>calendare</title>
		<path d="M28.675 13.59c0.249 0 0.416-0.166 0.416-0.416v-7.481c0-1.538-1.247-2.784-2.784-2.784h-1.787v-1.662c0-0.707-0.54-1.247-1.247-1.247h-2.494c-0.706 0-1.247 0.54-1.247 1.247v1.662h-9.143v-1.662c0-0.707-0.54-1.247-1.247-1.247h-2.494c-0.707 0-1.247 0.54-1.247 1.247v1.704c-0.042 0-0.083-0.042-0.125-0.042h-2.494c-1.538 0-2.784 1.247-2.784 2.784v23.107c0 1.538 1.247 2.784 2.784 2.784h23.522c1.538 0 2.784-1.247 2.784-2.784v-12.384c0-0.249-0.166-0.416-0.416-0.416s-0.416 0.166-0.416 0.416v12.384c0 1.081-0.873 1.953-1.953 1.953h-23.522c-1.081 0-1.953-0.873-1.953-1.953v-23.107c0-1.081 0.873-1.953 1.953-1.953h2.494c0.042 0 0.083 0 0.125-0.042v1.704c0 0.707 0.54 1.247 1.247 1.247h2.494c0.707 0 1.247-0.54 1.247-1.247v-1.662h9.143v1.662c0 0.707 0.54 1.247 1.247 1.247h2.494c0.706 0 1.247-0.54 1.247-1.247v-1.662h1.787c1.081 0 1.953 0.873 1.953 1.953v5.112h-25.766c-0.249 0-0.416 0.166-0.416 0.416s0.166 0.416 0.416 0.416h25.766v1.538c0 0.208 0.166 0.416 0.416 0.416zM9.558 5.403c0 0.249-0.166 0.416-0.416 0.416h-2.494c-0.249 0-0.416-0.166-0.416-0.416v-4.156c0-0.249 0.166-0.416 0.416-0.416h2.494c0.249 0 0.416 0.166 0.416 0.416v4.156zM23.273 5.818h-2.494c-0.249 0-0.416-0.166-0.416-0.416v-4.156c0-0.249 0.166-0.416 0.416-0.416h2.494c0.249 0 0.416 0.166 0.416 0.416v2.078c0 0 0 0 0 0s0 0 0 0v2.078c0 0.249-0.166 0.416-0.416 0.416z"></path>
		<path d="M6.442 14.961c-1.247 0-2.286 1.039-2.286 2.286s1.039 2.286 2.286 2.286c1.247 0 2.286-1.039 2.286-2.286s-1.039-2.286-2.286-2.286zM6.442 18.701c-0.79 0-1.455-0.665-1.455-1.455s0.665-1.455 1.455-1.455c0.79 0 1.455 0.665 1.455 1.455s-0.665 1.455-1.455 1.455z"></path>
		<path d="M14.338 14.961c-1.247 0-2.286 1.039-2.286 2.286s1.039 2.286 2.286 2.286c1.247 0 2.286-1.039 2.286-2.286s-1.039-2.286-2.286-2.286zM14.338 18.701c-0.79 0-1.455-0.665-1.455-1.455s0.665-1.455 1.455-1.455c0.79 0 1.455 0.665 1.455 1.455s-0.665 1.455-1.455 1.455z"></path>
		<path d="M22.234 14.961c-1.247 0-2.286 1.039-2.286 2.286s1.039 2.286 2.286 2.286c1.247 0 2.286-1.039 2.286-2.286s-1.039-2.286-2.286-2.286zM22.234 18.701c-0.79 0-1.455-0.665-1.455-1.455s0.665-1.455 1.455-1.455c0.79 0 1.455 0.665 1.455 1.455s-0.665 1.455-1.455 1.455z"></path>
		<path d="M6.442 22.442c-1.247 0-2.286 1.039-2.286 2.286s1.039 2.286 2.286 2.286c1.247 0 2.286-1.039 2.286-2.286s-1.039-2.286-2.286-2.286zM6.442 26.182c-0.79 0-1.455-0.665-1.455-1.455s0.665-1.455 1.455-1.455c0.79 0 1.455 0.665 1.455 1.455s-0.665 1.455-1.455 1.455z"></path>
		<path d="M14.338 22.442c-1.247 0-2.286 1.039-2.286 2.286s1.039 2.286 2.286 2.286c1.247 0 2.286-1.039 2.286-2.286s-1.039-2.286-2.286-2.286zM14.338 26.182c-0.79 0-1.455-0.665-1.455-1.455s0.665-1.455 1.455-1.455c0.79 0 1.455 0.665 1.455 1.455s-0.665 1.455-1.455 1.455z"></path>
		<path d="M22.234 22.442c-1.247 0-2.286 1.039-2.286 2.286s1.039 2.286 2.286 2.286c1.247 0 2.286-1.039 2.286-2.286s-1.039-2.286-2.286-2.286zM22.234 26.182c-0.79 0-1.455-0.665-1.455-1.455s0.665-1.455 1.455-1.455c0.79 0 1.455 0.665 1.455 1.455s-0.665 1.455-1.455 1.455z"></path>
	</symbol>
	<symbol id="icon-face" viewBox="0 0 16 32">
		<title>facebook</title>
		<path d="M16 5.114l-2.9 0.002c-2.274 0-2.715 1.080-2.715 2.665v3.497h5.424l-0.707 5.478h-4.718v14.053h-5.656v-14.053h-4.729v-5.478h4.729v-4.038c0-4.689 2.863-7.24 7.044-7.24 2.003 0 3.724 0.148 4.227 0.216v4.899z"></path>
	</symbol>
	<symbol id="icon-in" viewBox="0 0 32 32">
		<title>linkedin</title>
		<path d="M32 32h-6.413v-10.44c0-2.489-0.043-5.691-3.333-5.691-3.337 0-3.846 2.713-3.846 5.514v10.617h-6.407v-21.467h6.148v2.936h0.089c0.855-1.688 2.948-3.469 6.069-3.469 6.495 0 7.694 4.445 7.694 10.226v11.774z"></path>
		<path d="M4.003 8c-2.216 0-4.003-1.793-4.003-4s1.787-4 4.003-4c2.205 0 3.997 1.793 3.997 4s-1.791 4-3.997 4v0z"></path>
		<path d="M6 32h-6v-22h6z"></path>
	</symbol>
	<symbol id="icon-insta" viewBox="0 0 30 32">
		<title>instagram</title>
		<path d="M15.232 7.676c-4.231 0-7.737 3.445-7.737 7.737s3.445 7.737 7.737 7.737c4.292 0 7.737-3.506 7.737-7.737s-3.506-7.737-7.737-7.737zM15.232 20.37c-2.72 0-4.956-2.236-4.956-4.956s2.236-4.956 4.956-4.956c2.72 0 4.956 2.236 4.956 4.956s-2.236 4.956-4.956 4.956z"></path>
		<path d="M25.049 7.495c0 0.982-0.796 1.778-1.778 1.778s-1.778-0.796-1.778-1.778c0-0.982 0.796-1.778 1.778-1.778s1.778 0.796 1.778 1.778z"></path>
		<path d="M27.804 2.962c-1.572-1.632-3.808-2.478-6.347-2.478h-12.452c-5.259 0-8.764 3.506-8.764 8.764v12.391c0 2.599 0.846 4.836 2.539 6.468 1.632 1.572 3.808 2.357 6.286 2.357h12.331c2.599 0 4.775-0.846 6.347-2.357 1.632-1.572 2.478-3.808 2.478-6.407v-12.452c0-2.539-0.846-4.715-2.418-6.286zM27.563 21.7c0 1.874-0.665 3.385-1.753 4.412s-2.599 1.572-4.412 1.572h-12.331c-1.813 0-3.324-0.544-4.412-1.572-1.088-1.088-1.632-2.599-1.632-4.473v-12.391c0-1.813 0.544-3.324 1.632-4.412 1.028-1.028 2.599-1.572 4.412-1.572h12.452c1.813 0 3.324 0.544 4.412 1.632 1.028 1.088 1.632 2.599 1.632 4.352v12.452z"></path>
	</symbol>
	<symbol id="icon-twit" viewBox="0 0 38 32">
		<title>twitter</title>
		<path d="M34.493 8.794c0 10.409-7.925 22.414-22.416 22.414-4.45 0-8.59-1.303-12.077-3.538 0.617 0.072 1.243 0.108 1.879 0.108 3.691 0 7.087-1.258 9.785-3.372-3.449-0.062-6.358-2.34-7.361-5.47 0.482 0.091 0.974 0.139 1.483 0.139 0.718 0 1.414-0.096 2.076-0.276-3.605-0.722-6.319-3.907-6.319-7.723v-0.101c1.061 0.59 2.278 0.946 3.569 0.986-2.114-1.414-3.506-3.826-3.506-6.557 0-1.445 0.389-2.798 1.068-3.962 3.886 4.766 9.691 7.903 16.238 8.232-0.134-0.576-0.204-1.178-0.204-1.795 0-4.351 3.528-7.879 7.877-7.879 2.268 0 4.315 0.958 5.75 2.489 1.795-0.353 3.482-1.008 5.004-1.91-0.588 1.838-1.838 3.382-3.463 4.358 1.594-0.192 3.11-0.614 4.524-1.241-1.056 1.579-2.393 2.966-3.931 4.078 0.014 0.338 0.024 0.677 0.024 1.020z"></path>
	</symbol>
	<symbol id="icon-search" viewBox="0 0 32 32">
		<title>search</title>
		<path d="M14.651 29.301c3.614 0 6.94-1.301 9.494-3.47l6.169 6.169 1.687-1.687-6.169-6.169c2.169-2.554 3.47-5.88 3.47-9.494 0-8.096-6.602-14.651-14.651-14.651-8.096 0-14.651 6.602-14.651 14.651 0 8.096 6.554 14.651 14.651 14.651zM14.651 2.41c6.747 0 12.241 5.494 12.241 12.241s-5.494 12.241-12.241 12.241c-6.747 0-12.241-5.494-12.241-12.241s5.494-12.241 12.241-12.241z"></path>
	</symbol>
	<symbol id="icon-button-arrow-white" viewBox="0 0 51 32">
		<title>button-arrow-white</title>
		<path d="M49.432 14.179l-14.975-12.775c-0.687-0.586-1.725-0.509-2.317 0.168-0.594 0.678-0.518 1.702 0.169 2.289l11.478 9.791h-40.903c-0.907 0-1.643 0.726-1.643 1.622s0.736 1.622 1.643 1.622h41.316l-6.543 5.766-5.111 3.991c-0.711 0.556-0.832 1.576-0.269 2.279 0.324 0.405 0.805 0.615 1.29 0.615 0.357 0 0.716-0.114 1.019-0.35l5.184-4.054 9.681-8.528c0.353-0.31 0.553-0.756 0.55-1.223-0.004-0.466-0.21-0.909-0.57-1.214z"></path>
	</symbol>
	<symbol id="icon-button-arrow-blue" viewBox="0 0 51 32">
		<title>button-arrow-blue</title>
		<path fill="#3f95b5" style="fill: var(--color2, #3f95b5)" d="M49.364 14.179l-14.975-12.775c-0.687-0.586-1.725-0.509-2.317 0.168-0.594 0.678-0.518 1.702 0.169 2.289l11.478 9.791h-40.903c-0.907 0-1.643 0.726-1.643 1.622s0.736 1.622 1.643 1.622h41.316l-6.543 5.766-5.111 3.991c-0.711 0.556-0.832 1.576-0.269 2.279 0.324 0.405 0.805 0.615 1.29 0.615 0.357 0 0.716-0.114 1.019-0.35l5.184-4.054 9.681-8.528c0.353-0.31 0.553-0.756 0.55-1.223-0.004-0.466-0.21-0.909-0.57-1.214z"></path>
	</symbol>
	<symbol id="icon-vew-icon" viewBox="0 0 51 32">
		<title>vew-icon</title>
		<path fill="#fff" style="fill: var(--color1, #fff)" d="M49.701 13.611c-0.98-1.392-9.744-13.353-24.438-13.353s-23.459 11.961-24.438 13.353c-0.773 1.083-0.773 2.578 0 3.764l0.103 0.155c2.269 3.093 10.672 13.147 24.335 13.147 14.694 0 23.459-11.961 24.438-13.353 0.773-1.083 0.773-2.629 0-3.712zM25.263 28.099c-12.477 0-20.159-9.28-22.221-12.116l-0.052-0.052c-0.155-0.309-0.206-0.619 0-0.876 0.876-1.237 8.868-12.219 22.273-12.219s21.396 10.982 22.273 12.219c0.155 0.258 0.155 0.567 0 0.825-0.876 1.289-8.868 12.219-22.273 12.219z"></path>
		<path fill="#fff" style="fill: var(--color1, #fff)" d="M25.263 4.743c-5.929 0-10.724 4.795-10.724 10.724s4.795 10.724 10.724 10.724c5.929 0 10.724-4.795 10.724-10.724s-4.795-10.724-10.724-10.724zM25.263 23.613c-4.486 0-8.146-3.661-8.146-8.146s3.661-8.146 8.146-8.146c4.486 0 8.146 3.661 8.146 8.146s-3.661 8.146-8.146 8.146z"></path>
	</symbol>
	<symbol id="icon-email-blue" viewBox="0 0 31 32">
		<title>email</title>
		<path fill="#3f95b5" style="fill: var(--color1, #3f95b5)" d="M24.633 9.072v-6.019c0-0.893-0.704-1.599-1.595-1.599h-16.985c-0.891 0-1.595 0.705-1.595 1.599v6.019l-4.129 4.138c-0.094 0.094-0.141 0.188-0.141 0.329v16.364c0 0.423 0.188 0.846 0.469 1.129 0 0 0 0 0 0s0 0 0 0c0.282 0.282 0.704 0.47 1.126 0.47h25.525c0.422 0 0.798-0.188 1.126-0.47 0 0 0 0 0.047 0 0 0 0 0 0-0.047 0.282-0.282 0.469-0.658 0.469-1.081v-16.317c0 0 0 0 0 0 0-0.141-0.047-0.235-0.141-0.329l-4.176-4.185zM24.633 10.436l3.144 3.15-3.144 3.15v-6.301zM5.396 3.053c0-0.376 0.282-0.658 0.657-0.658h16.985c0.375 0 0.657 0.282 0.657 0.658v14.624l-9.15 9.169-9.15-9.169v-14.624zM4.457 10.436v6.301l-3.144-3.15 3.144-3.15zM1.126 29.95v-15.235l7.601 7.618-7.601 7.618zM1.783 30.608l7.601-7.618 4.833 4.843c0.094 0.094 0.235 0.141 0.328 0.141s0.235-0.047 0.328-0.141l4.833-4.843 7.601 7.618h-25.525zM27.965 29.95l-7.601-7.618 7.601-7.618v15.235z"></path>
		<path fill="#3f95b5" style="fill: var(--color1, #3f95b5)" d="M17.455 16.219c-0.141-0.235-0.422-0.329-0.61-0.188-0.798 0.423-1.642 0.611-2.675 0.611-2.252 0-4.504-1.599-4.504-4.655 0-2.868 1.877-5.831 5.49-5.831 2.534 0 4.27 1.74 4.27 4.279 0 2.257-1.22 3.433-2.44 3.433-0.188 0-0.657-0.094-0.751-0.705 0.375-0.517 0.61-1.082 0.704-1.646l0.469-2.304c0.047-0.235-0.094-0.47-0.328-0.564-0.375-0.094-0.798-0.141-1.22-0.141-2.158 0-3.894 1.834-3.894 4.138 0 1.223 0.751 2.022 1.877 2.022 0.563 0 1.173-0.282 1.642-0.658 0.328 0.564 0.891 0.846 1.455 0.846 1.689 0 3.378-1.505 3.378-4.373 0.047-3.15-2.111-5.266-5.161-5.266-3.66 0-6.428 2.915-6.428 6.771 0 3.245 2.299 5.596 5.443 5.596 1.22 0 2.205-0.235 3.144-0.705 0.188-0.188 0.282-0.47 0.141-0.658zM13.889 13.633c-0.798 0-0.938-0.564-0.938-1.082 0-1.74 1.361-3.197 2.956-3.197 0.188 0 0.375 0 0.516 0.047l-0.375 1.834c-0.188 1.129-1.173 2.398-2.158 2.398z"></path>
	</symbol>
	<symbol id="icon-phone-blue" viewBox="0 0 32 32">
		<title>phone</title>
		<path fill="#3f95b5" style="fill: var(--color1, #3f95b5)" d="M23.937 31.991c-1.043 0-2.097-0.132-3.149-0.397-7.612-1.916-18.475-12.779-20.391-20.392-0.774-3.071-0.411-6.162 1.049-8.934 0.635-1.207 1.77-2.016 3.114-2.22 1.331-0.199 2.645 0.229 3.6 1.184l3.114 3.114c1.226 1.226 1.582 3.101 0.884 4.664-0.366 0.821-0.832 1.518-1.386 2.071-0.38 0.381-0.456 1.010-0.226 1.871 0.838 3.131 5.364 7.656 8.495 8.496 0.861 0.23 1.49 0.155 1.87-0.226 0.555-0.555 1.252-1.022 2.072-1.386 1.563-0.7 3.436-0.343 4.663 0.883l3.114 3.114c0.955 0.955 1.386 2.267 1.184 3.601-0.204 1.343-1.013 2.478-2.221 3.113-1.823 0.96-3.783 1.446-5.786 1.446zM5.195 2.133c-0.105 0-0.21 0.008-0.317 0.024-0.666 0.101-1.229 0.504-1.546 1.105-1.228 2.333-1.52 4.829-0.868 7.42 1.736 6.894 11.95 17.109 18.844 18.844 2.591 0.653 5.087 0.359 7.42-0.868 0.601-0.317 1.004-0.88 1.105-1.547 0.099-0.655-0.113-1.301-0.583-1.772l-3.114-3.114c-0.606-0.604-1.524-0.782-2.287-0.444-0.581 0.259-1.062 0.577-1.432 0.947-0.659 0.658-1.875 1.328-3.931 0.778-3.908-1.047-8.956-6.096-10.003-10.004-0.55-2.055 0.12-3.272 0.779-3.931 0.369-0.369 0.687-0.85 0.946-1.431 0.341-0.762 0.162-1.681-0.444-2.287l-3.114-3.114c-0.394-0.394-0.912-0.607-1.456-0.607z"></path>
	</symbol>
	<symbol id="icon-map" viewBox="0 0 22 32">
		<title>map</title>
		<path fill="#fff" style="fill: var(--color1, #fff)" d="M11.035 1.133c5.45 0 9.869 4.312 9.869 9.63 0.039 1.683-0.36 3.348-1.161 4.838-1.905 3.62-7.118 11.517-8.709 13.952-1.625-2.43-6.857-10.293-8.709-13.947-0.798-1.493-1.197-3.159-1.161-4.843 0-5.318 4.419-9.63 9.869-9.63zM10.553 30.902c0.106 0.158 0.288 0.254 0.482 0.255 0.196 0.001 0.38-0.095 0.488-0.255 0.284-0.425 7.001-10.447 9.289-14.78 0.872-1.655 1.303-3.498 1.254-5.359 0-5.944-4.938-10.763-11.030-10.763s-11.030 4.819-11.030 10.763c-0.056 1.858 0.37 3.699 1.236 5.353 2.276 4.356 9.022 14.36 9.312 14.786z"></path>
		<path fill="#fff" style="fill: var(--color1, #fff)" d="M11.689 6.354c2.224 0.003 4.024 1.809 4.021 4.032s-1.809 4.023-4.032 4.020c-2.221-0.002-4.020-1.804-4.020-4.026 0.003-2.225 1.808-4.026 4.032-4.026zM11.689 15.578c2.867-0.003 5.19-2.331 5.187-5.199s-2.331-5.19-5.199-5.187c-2.866 0.003-5.187 2.326-5.187 5.192 0.007 2.868 2.331 5.19 5.198 5.193z"></path>
	</symbol>
	<symbol id="icon-call" viewBox="0 0 32 32">
		<title>call</title>
		<path fill="#fff" style="fill: var(--color1, #fff); stroke: var(--color1, #fff)" stroke="#fff" stroke-linejoin="miter" stroke-linecap="butt" stroke-miterlimit="4" stroke-width="0.3636" d="M28.88 27.444l-0.523 0.523c-0.185 0.185-0.382 0.327-0.587 0.423-5.634 2.67-13.502 0.604-19.133-5.028s-7.699-13.5-5.028-19.134c0.097-0.206 0.24-0.402 0.425-0.585l0.522-0.523c0.442-0.444 1.024-0.663 1.606-0.663 0.58 0 1.162 0.219 1.604 0.663l2.782 2.782c0.71 0.71 0.867 1.818 0.386 2.696l-2.296 4.182c-0.544 0.995-0.546 2.171-0.003 3.143 0.857 1.534 1.938 2.957 3.211 4.231 1.275 1.275 2.698 2.356 4.232 3.211 0.972 0.543 2.147 0.541 3.142-0.003l4.183-2.294c0.878-0.481 1.986-0.324 2.694 0.384l2.784 2.784c0.885 0.885 0.885 2.323 0 3.208zM26.806 20.744c-1.022-1.022-2.62-1.249-3.887-0.556l-4.182 2.294c-0.68 0.374-1.512 0.376-2.173 0.008-1.452-0.812-2.801-1.836-4.010-3.044s-2.233-2.558-3.046-4.012c-0.368-0.659-0.365-1.492 0.008-2.171l2.294-4.184c0.695-1.265 0.467-2.865-0.554-3.885l-2.784-2.784c-1.275-1.275-3.351-1.275-4.626 0l-0.522 0.523c-0.267 0.266-0.475 0.556-0.622 0.865-2.85 6.011-0.702 14.346 5.225 20.273 4.174 4.174 9.542 6.473 14.451 6.473 2.063 0 4.043-0.405 5.82-1.248 0.309-0.146 0.599-0.355 0.867-0.622l0.522-0.523c1.277-1.275 1.277-3.349 0-4.624l-2.782-2.784z"></path>
	</symbol>
	<symbol id="icon-email" viewBox="0 0 32 32">
		<title>email</title>
		<path fill="#fff" style="fill: var(--color1, #fff); stroke: var(--color1, #fff)" stroke="#fff" stroke-linejoin="miter" stroke-linecap="butt" stroke-miterlimit="4" stroke-width="0.7273" d="M11.1 20.442l4.678 3.842c0.13 0.106 0.314 0.106 0.444 0l4.681-3.842 8.468 9.376h-26.742l8.471-9.376zM29.838 13.125v16.159l-8.394-9.285 8.394-6.874zM2.162 13.125l8.394 6.874-8.394 9.285v-16.159zM16 2.264l13.604 10.113-13.604 11.159-13.604-11.159 13.604-10.113zM15.967 1.457c-0.071 0.009-0.13 0.039-0.178 0.067l-14.19 10.546c-0.092 0.067-0.145 0.179-0.145 0.294v17.815c0 0.191 0.169 0.367 0.355 0.367h28.381c0.186 0 0.355-0.176 0.355-0.367v-17.815c0.003-0.115-0.053-0.227-0.145-0.294l-14.19-10.546c-0.086-0.061-0.172-0.076-0.243-0.067z"></path>
	</symbol>
	<symbol id="Icon-Facebook" viewBox="0 0 32 32">
      <title>Facebook</title>
      <path d="M23.612 0.782l-3.951-0.009c-4.435 0-7.301 2.943-7.301 7.493v3.459h-3.972c-0.343 0-0.62 0.276-0.62 0.621v5.007c0 0.343 0.279 0.617 0.62 0.617h3.972v12.634c0 0.343 0.278 0.622 0.621 0.622h5.18c0.342 0 0.617-0.28 0.617-0.622v-12.634h4.64c0.347 0 0.623-0.275 0.623-0.617v-5.007c0-0.165-0.060-0.321-0.183-0.438-0.115-0.118-0.269-0.183-0.435-0.183h-4.646v-2.932c0-1.405 0.338-2.121 2.171-2.121h2.657c0.347 0 0.623-0.279 0.623-0.623v-4.646c0.004-0.342-0.274-0.62-0.616-0.62z"></path>
    </symbol>
    <symbol id="Icon-Twitter" viewBox="0 0 32 32">
      <title>Twitter</title>
      <path d="M32 7.075c-1.175 0.525-2.444 0.875-3.769 1.031 1.356-0.813 2.394-2.1 2.887-3.631-1.269 0.75-2.675 1.3-4.169 1.594-1.2-1.275-2.906-2.069-4.794-2.069-3.625 0-6.563 2.938-6.563 6.563 0 0.512 0.056 1.012 0.169 1.494-5.456-0.275-10.294-2.888-13.531-6.862-0.563 0.969-0.887 2.1-0.887 3.3 0 2.275 1.156 4.287 2.919 5.463-1.075-0.031-2.087-0.331-2.975-0.819 0 0.025 0 0.056 0 0.081 0 3.181 2.263 5.838 5.269 6.437-0.55 0.15-1.131 0.231-1.731 0.231-0.425 0-0.831-0.044-1.237-0.119 0.838 2.606 3.263 4.506 6.131 4.563-2.25 1.762-5.075 2.813-8.156 2.813-0.531 0-1.050-0.031-1.569-0.094 2.913 1.869 6.362 2.95 10.069 2.95 12.075 0 18.681-10.006 18.681-18.681 0-0.287-0.006-0.569-0.019-0.85 1.281-0.919 2.394-2.075 3.275-3.394z"></path>
    </symbol>
    <symbol id="Icon-Insta" viewBox="0 0 32 32">
      <title>Instagram</title>
      <path d="M21.213 2.098h-10.427c-4.797 0-8.689 3.891-8.689 8.689v10.427c0 4.799 3.891 8.689 8.689 8.689h10.427c4.799 0 8.689-3.89 8.689-8.689v-10.427c0-4.797-3.89-8.689-8.689-8.689zM27.296 21.213c0 3.354-2.729 6.083-6.083 6.083h-10.427c-3.354 0-6.083-2.729-6.083-6.083v-10.427c0-3.354 2.729-6.083 6.083-6.083h10.427c3.354 0 6.083 2.729 6.083 6.083v10.427z"></path>
      <path d="M16 9.048c-3.839 0-6.952 3.113-6.952 6.952s3.113 6.952 6.952 6.952 6.952-3.113 6.952-6.952-3.113-6.952-6.952-6.952zM16 20.346c-2.395 0-4.346-1.949-4.346-4.346s1.949-4.346 4.346-4.346 4.346 1.948 4.346 4.346c0 2.395-1.951 4.346-4.346 4.346z"></path>
      <path d="M24.399 8.527c0 0.512-0.415 0.927-0.927 0.927s-0.927-0.415-0.927-0.927c0-0.512 0.415-0.927 0.927-0.927s0.927 0.415 0.927 0.927z"></path>
    </symbol>
    <symbol id="Icon-Share" viewBox="0 0 50 50">
      <title>Share</title>
      <path d="M39.192,31.139c-2.621,0-4.934,1.249-6.444,3.162l-14.013-7.166
      c0.183-0.685,0.315-1.392,0.315-2.136c0-0.81-0.156-1.572-0.375-2.314l13.951-7.133c1.502,2,3.874,3.306,6.567,3.306
      c4.564,0,8.254-3.691,8.254-8.25c0-4.555-3.69-8.248-8.254-8.248c-4.552,0-8.247,3.693-8.247,8.248
      c0,0.746,0.132,1.455,0.317,2.141l-14.011,7.166c-1.512-1.915-3.829-3.168-6.454-3.168c-4.56,0-8.248,3.696-8.248,8.252
      s3.688,8.25,8.248,8.25c2.697,0,5.068-1.311,6.576-3.312L31.32,37.07c-0.219,0.739-0.377,1.508-0.377,2.32
      c0,4.557,3.694,8.25,8.247,8.25c4.563,0,8.254-3.693,8.254-8.25C47.446,34.83,43.756,31.139,39.192,31.139z"></path>
    </symbol>
    <symbol id="icon-youtube-icon" viewBox="0 0 32 32">
        <title>youtube</title>
        <path d="M29.699 7.692c-0.812-1.445-1.693-1.711-3.488-1.812-1.793-0.122-6.301-0.172-10.207-0.172-3.914 0-8.424 0.050-10.214 0.17-1.791 0.102-2.674 0.366-3.493 1.814-0.836 1.443-1.267 3.927-1.267 8.302 0 0.005 0 0.006 0 0.006 0 0.004 0 0.006 0 0.006v0.003c0 4.357 0.43 6.861 1.267 8.291 0.82 1.444 1.701 1.706 3.493 1.828 1.792 0.105 6.303 0.166 10.216 0.166 3.905 0 8.413-0.061 10.209-0.164 1.795-0.123 2.676-0.384 3.488-1.829 0.845-1.427 1.271-3.932 1.271-8.289 0 0 0-0.005 0-0.010 0 0 0-0.003 0-0.005-0.001-4.378-0.429-6.862-1.275-8.305zM12.257 21.615v-11.229l9.358 5.615-9.358 5.614z"></path>
    </symbol>
    <symbol id="icon-linkedin" viewBox="0 0 32 32">
        <title>linkedin</title>
        <path d="M12 12h5.535v2.837h0.079c0.77-1.381 2.655-2.837 5.464-2.837 5.842 0 6.922 3.637 6.922 8.367v9.633h-5.769v-8.54c0-2.037-0.042-4.657-3.001-4.657-3.005 0-3.463 2.218-3.463 4.509v8.688h-5.767v-18z"></path>
        <path d="M2 12h6v18h-6v-18z"></path>
        <path d="M8 7c0 1.657-1.343 3-3 3s-3-1.343-3-3c0-1.657 1.343-3 3-3s3 1.343 3 3z"></path>
    </symbol>
    <symbol id="icon-download-brochure" viewBox="0 0 30 32">
		<title>download-brochure</title>
		<path d="M27.035 5.951l-7.985-4.725c-0.060-0.030-0.15-0.030-0.209 0l-7.895 4.636-7.865-4.636c-0.060-0.030-0.15-0.030-0.209 0-0.090 0.060-0.12 0.12-0.12 0.209v24.434c0 0.090 0.030 0.15 0.12 0.179l7.985 4.695c0.060 0.030 0.15 0.030 0.209 0l7.865-4.636 7.865 4.636c0.060 0.030 0.15 0.030 0.209 0s0.12-0.12 0.12-0.179v-24.434c0.030-0.090 0-0.15-0.090-0.179zM3.2 1.794l7.536 4.456v23.925l-7.536-4.426v-23.955zM11.185 6.25l7.536-4.456v23.925l-7.536 4.486v-23.955zM26.707 30.206l-7.536-4.456v-23.955l7.536 4.456v23.955z"></path>
	</symbol>
	<symbol id="icon-pdf" viewBox="0 0 27 32">
		<title>pdf</title>
		<path d="M19.244 16.879c-0.88 0-1.978 0.147-3.188 0.425-1.267-0.97-2.553-2.152-3.657-3.361 0.365-3.61-0.221-5.116-0.783-5.744-0.443-0.494-1.059-0.665-1.742-0.478-0.782 0.214-1.077 0.705-1.187 1.080-0.455 1.549 1.434 4.024 2.707 5.465-0.195 1.659-0.565 3.437-1.051 5.054-1.153 0.558-2.141 1.154-2.867 1.729-0.914 0.724-1.434 1.43-1.545 2.097-0.091 0.548 0.090 1.062 0.525 1.485 0.336 0.327 0.706 0.493 1.101 0.493 0 0 0 0 0 0 1.682 0 2.944-3.112 3.581-5.113 1.482-0.685 3.136-1.27 4.702-1.664 1.345 0.99 3.154 2.102 4.497 2.102 0.886 0 1.475-0.478 1.659-1.347 0.148-0.7-0.073-1.157-0.284-1.418-0.434-0.535-1.264-0.806-2.467-0.806zM7.557 24.161c-0.137 0-0.277-0.072-0.429-0.219-0.269-0.262-0.273-0.477-0.247-0.636 0.121-0.726 1.254-1.716 3.031-2.681-0.884 2.433-1.793 3.536-2.356 3.536zM9.612 9.073c0.042-0.142 0.138-0.318 0.517-0.422 0.099-0.027 0.192-0.041 0.277-0.041 0.194 0 0.35 0.074 0.493 0.233 0.515 0.574 0.733 2.059 0.616 4.072-1.142-1.415-2.14-3.031-1.902-3.842zM14.859 17.612c-1.119 0.317-2.261 0.72-3.342 1.177l0.009-0.029-0.025 0.012c0.312-1.162 0.565-2.379 0.74-3.561l0.018 0.020 0.003-0.027c0.817 0.843 1.706 1.658 2.601 2.386l-0.025 0.006 0.021 0.016zM21.052 18.904c-0.088 0.419-0.289 0.582-0.715 0.582-0.723 0-1.869-0.509-3.221-1.418 0.801-0.148 1.525-0.225 2.128-0.225 1.178 0 1.583 0.282 1.719 0.45 0.043 0.053 0.174 0.214 0.090 0.611z"></path>
		<path d="M21.244 0h-21.244v31.807h26.667v-26.384l-5.423-5.423zM21.526 1.645l3.495 3.495h-3.495v-3.495zM0.964 30.843v-29.88h19.598v5.141h5.141v24.739h-24.739z"></path>
	</symbol>
	<symbol id="icon-warranty" viewBox="0 0 24 32">
		<title>warranty</title>
		<path d="M0.298 0c-0.168 0.032-0.301 0.196-0.298 0.367v27.562c0 0.192 0.175 0.367 0.367 0.367h9.401c0.194 0.004 0.373-0.173 0.373-0.367s-0.178-0.37-0.373-0.367h-9.034v-26.827h22.773v26.827h-0.723c-0.194-0.004-0.373 0.173-0.373 0.367s0.178 0.37 0.373 0.367h1.090c0.192-0 0.367-0.175 0.367-0.367v-27.562c-0-0.192-0.175-0.367-0.367-0.367-7.857 0-15.724 0-23.577 0zM3.972 3.307c-0.192 0.018-0.351 0.21-0.333 0.402s0.209 0.351 0.402 0.333h16.162c0.194 0.003 0.373-0.173 0.373-0.368s-0.178-0.37-0.373-0.368c-5.409 0-10.827 0-16.23 0zM3.972 6.982c-0.192 0.018-0.351 0.21-0.333 0.402s0.209 0.351 0.402 0.333h16.162c0.194 0.003 0.373-0.173 0.373-0.367s-0.178-0.37-0.373-0.367c-5.409 0-10.827 0-16.23 0zM3.972 10.657c-0.192 0.018-0.351 0.21-0.333 0.402s0.209 0.351 0.402 0.333h15.806c0.194 0.003 0.373-0.173 0.373-0.367s-0.178-0.37-0.373-0.367c-5.29 0-10.59 0-15.875 0zM3.972 14.332c-0.192 0.018-0.351 0.21-0.333 0.402s0.209 0.351 0.402 0.333h6.979c0.194 0.004 0.373-0.173 0.373-0.367s-0.178-0.37-0.373-0.367c-2.347 0-4.706 0-7.048 0zM16.162 15.067c-2.836 0-5.142 2.308-5.142 5.145s2.307 5.145 5.142 5.145 5.142-2.308 5.142-5.145c0-2.837-2.307-5.145-5.142-5.145zM16.162 15.802c2.439 0 4.408 1.97 4.408 4.41s-1.969 4.41-4.408 4.41-4.408-1.97-4.408-4.41c0-2.44 1.969-4.41 4.408-4.41zM18.71 17.996c-0.096 0.007-0.189 0.053-0.253 0.126l-3.042 3.388-1.194-1.194c-0.135-0.14-0.385-0.143-0.524-0.007s-0.141 0.386-0.004 0.524l1.481 1.47c0.14 0.138 0.395 0.133 0.528-0.011l3.306-3.675c0.205-0.215-0.003-0.647-0.298-0.62v-0zM12.443 25.346c-0.18 0.023-0.328 0.197-0.321 0.379v5.512c0.004 0.264 0.356 0.447 0.574 0.299l3.466-2.412 3.466 2.412c0.218 0.148 0.57-0.035 0.574-0.299v-5.512c0.003-0.194-0.173-0.373-0.367-0.373s-0.37 0.179-0.367 0.373v4.8l-3.099-2.136c-0.121-0.082-0.292-0.082-0.413 0l-3.099 2.136v-4.8c0.008-0.213-0.202-0.406-0.413-0.379z"></path>
	</symbol>
	<symbol id="icon-Better-Blood-Circulation" viewBox="0 0 32 32">
		<title>Better-Blood-Circulation</title>
		<path fill="#3f95b5" style="fill: var(--color1, #3f95b5)" d="M16 24.511c-3.567 0-6.468-2.853-6.468-6.359 0-1.005 0.229-1.973 0.662-2.801 0.283-0.546 0.396-0.704 0.629-1.028 0.094-0.13 0.207-0.289 0.367-0.522l0.329-0.481c0.567-0.823 1.207-1.754 1.755-2.69 1.215-2.061 2.067-4.056 2.076-4.075 0.109-0.259 0.367-0.427 0.651-0.427 0 0 0 0 0.001 0 0.284 0 0.542 0.169 0.651 0.428 0.008 0.019 0.849 2.001 2.069 4.073 0.554 0.941 1.202 1.883 1.774 2.715l0.314 0.456c0.154 0.226 0.266 0.383 0.359 0.511 0.243 0.338 0.353 0.492 0.649 1.071 0.423 0.805 0.649 1.765 0.649 2.77-0.001 3.507-2.901 6.359-6.468 6.359zM15.999 8.507c-0.374 0.773-0.891 1.78-1.503 2.819-0.572 0.976-1.257 1.973-1.809 2.773l-0.327 0.476c-0.167 0.245-0.287 0.413-0.385 0.549-0.194 0.271-0.289 0.402-0.527 0.861-0.331 0.634-0.506 1.383-0.506 2.168 0 2.741 2.268 4.971 5.057 4.971 2.788 0 5.055-2.23 5.055-4.971 0-0.784-0.171-1.524-0.495-2.139-0.251-0.489-0.343-0.618-0.546-0.901-0.097-0.134-0.214-0.298-0.376-0.537l-0.311-0.452c-0.556-0.809-1.248-1.815-1.826-2.797-0.614-1.043-1.129-2.049-1.502-2.819z"></path>
		<path fill="#3f95b5" style="fill: var(--color1, #3f95b5)" d="M28.667 6.316l-1.003 1.003c1.812 2.427 2.898 5.426 2.898 8.681 0 8.030-6.532 14.563-14.561 14.563-3.255 0-6.254-1.087-8.682-2.898-0.031-0.023-0.057-0.053-0.088-0.076h1.373c0.389 0 0.703-0.315 0.703-0.703s-0.315-0.703-0.703-0.703h-3.054c-0.389 0-0.703 0.315-0.703 0.703v3.055c0 0.389 0.315 0.703 0.703 0.703s0.703-0.315 0.703-0.703v-1.327c0.022 0.017 0.041 0.038 0.063 0.055 2.69 2.062 6.042 3.302 9.685 3.302 8.805 0 15.968-7.164 15.968-15.969-0-3.642-1.24-6.994-3.301-9.684z"></path>
		<path fill="#3f95b5" style="fill: var(--color1, #3f95b5)" d="M16.001 1.438c3.254 0 6.252 1.086 8.679 2.897 0.087 0.065 0.161 0.147 0.247 0.214h-1.573c-0.389 0-0.703 0.315-0.703 0.703s0.315 0.703 0.703 0.703h3.054c0.023 0 0.042-0.011 0.065-0.013 0.357-0.034 0.638-0.325 0.638-0.69v-3.055c0-0.389-0.315-0.703-0.703-0.703s-0.703 0.315-0.703 0.703v1.153c-0.007-0.006-0.014-0.013-0.022-0.019-2.69-2.061-6.041-3.301-9.683-3.301-8.805 0-15.969 7.164-15.969 15.969 0 3.642 1.24 6.993 3.301 9.683l1.003-1.003c-1.811-2.427-2.897-5.426-2.897-8.68 0-8.030 6.533-14.563 14.562-14.563z"></path>
	</symbol>
	<symbol id="icon-Relieve-Asthma" viewBox="0 0 26 32">
		<title>Relieve-Asthma</title>
		<path fill="#3f95b5" style="fill: var(--color1, #3f95b5)" d="M22.299 3.054c0.684 0.502 1.421 0.871 2.449 1.016-0.721-0.923-1.648-0.809-2.449-1.016zM17.773 22.16c0 0.178 0.028 0.361-0.005 0.532-0.105 0.535 0.075 0.656 0.586 0.538 0.635-0.146 1.288-0.221 1.936-0.302 1.208-0.151 1.311-0.301 0.955-1.468-0.494-1.62-1.895-2.471-3.36-2.079-0.367 0.098-0.447 0.251-0.363 0.601 0.172 0.714 0.26 1.442 0.252 2.179zM20.744 3.118c0.015-0.428-1.087-1.625-1.793-1.894-0.348-0.132-0.485-0.082-0.552 0.334-0.784 4.887-1.587 9.772-2.395 14.656-0.039 0.237-0.060 0.413 0.142 0.59 0.426 0.372 0.61 0.908 0.86 1.4 0.112 0.222 0.076 0.63 0.53 0.514 0.371-0.094 0.699-0.098 0.785-0.666 0.479-3.182 1.020-6.355 1.539-9.531 0.29-1.774 0.581-3.548 0.884-5.403zM10.055 23.303c0 0.2 0.029 0.405-0.006 0.599-0.092 0.519 0.076 0.653 0.589 0.565 1.868-0.322 3.741-0.613 5.615-0.895 0.432-0.065 0.754-0.185 0.787-0.697 0.12-1.889-0.252-3.664-1.187-5.305-0.132-0.231-0.297-0.367-0.64-0.261-1.916 0.593-3.84 1.162-5.771 1.701-0.494 0.138-0.503 0.306-0.281 0.72 0.595 1.108 0.913 2.301 0.893 3.574zM21.863 20.994c0.053-0.275 0.070-0.357 0.084-0.438 0.431-2.625 0.861-5.251 1.291-7.876 0.394-2.407 0.792-4.814 1.175-7.222 0.040-0.25 0.228-0.583-0.211-0.711-0.964-0.282-1.863-0.723-2.759-1.27-0.053 0.225-0.103 0.394-0.131 0.565-0.394 2.429-0.783 4.86-1.178 7.289-0.359 2.211-0.727 4.42-1.079 6.633-0.036 0.227-0.224 0.549 0.199 0.644 1.227 0.276 1.995 1.108 2.609 2.387zM7.923 19.553l-0.002 0.004c-0.11 0.066-0.127 0.169-0.11 0.286-0.012 0.067-0.024 0.133-0.036 0.2-0.166 0.444-0.137 0.887 0.003 1.33 0.079 1.007 0.322 1.966 0.847 2.832 0.108 0.177 0.218 0.457 0.466 0.397s0.232-0.372 0.242-0.57c0.079-1.603-0.141-3.134-1.155-4.445-0.067-0.155-0.149-0.192-0.256-0.035zM6.962 20.697c-0.007-0.384 0.086-0.751 0.14-1.124 0.078-0.55 0.408-0.794 0.888-0.933 1.82-0.525 3.637-1.063 5.457-1.589 1.777-0.513 1.764-0.512 2.064-2.371 0.735-4.555 1.497-9.106 2.216-13.664 0.108-0.685 0.448-0.752 0.982-0.641 0.635 0.132 1.238 0.393 1.639 0.895 0.379 0.475 0.843 0.65 1.377 0.789 0.924 0.241 1.859 0.461 2.756 0.786 0.742 0.269 0.976 0.799 0.846 1.59-0.716 4.355-1.441 8.709-2.157 13.065-0.234 1.423-0.424 2.854-0.675 4.274-0.229 1.291-0.665 1.665-1.936 1.868-3.396 0.541-6.79 1.095-10.185 1.643-0.343 0.055-0.687 0.108-1.032 0.148-0.51 0.059-0.871-0.199-1.168-0.591-0.925-1.225-1.077-2.683-1.212-4.146z"></path>
		<path fill="#3f95b5" style="fill: var(--color1, #3f95b5)" d="M7.502 24.455c0.037 0.181-0.166 0.224-0.3 0.28-0.706 0.296-1.422 0.577-2.133 0.866-0.274 0.111-0.483 0.133-0.647-0.136-0.152-0.25-0.075-0.372 0.232-0.484 0.746-0.274 1.473-0.579 2.221-0.85 0.299-0.109 0.618 0.075 0.627 0.324z"></path>
		<path fill="#3f95b5" style="fill: var(--color1, #3f95b5)" d="M4.937 22.527c0.495-0.044 0.531 0.087 0.578 0.192 0.048 0.108-0.007 0.193-0.249 0.225-0.808 0.109-1.614 0.224-2.418 0.342-0.198 0.029-0.377 0.057-0.409-0.098-0.023-0.115-0.204-0.27 0.135-0.322 0.845-0.131 1.7-0.245 2.363-0.339z"></path>
		<path fill="#3f95b5" style="fill: var(--color1, #3f95b5)" d="M3.96 21.001c0.388-0.019 0.777-0.031 1.164-0.060 0.317-0.024 0.392 0.129 0.406 0.347 0.014 0.214-0.102 0.313-0.36 0.324-0.799 0.033-1.598 0.065-2.396 0.115-0.403 0.025-0.355-0.212-0.395-0.412-0.047-0.235 0.088-0.308 0.346-0.304 0.412 0.007 0.823 0.002 1.235 0.002 0-0.004 0-0.008 0-0.012z"></path>
		<path fill="#3f95b5" style="fill: var(--color1, #3f95b5)" d="M0.16 31.614c-0.041 0.058 0.056 0.287-0.16 0.13 0.040-0.060 0.039-0.17 0.16-0.13z"></path>
	</symbol>
	<symbol id="icon-Improved-Digestion" viewBox="0 0 27 32">
		<title>Improved-Digestion</title>
		<path fill="#3f95b5" style="fill: var(--color1, #3f95b5)" d="M24.901 9.349c-2.309-2.446-4.332-3.484-6.009-3.087-1.758 0.415-2.468 2.202-2.692 2.95-0.202 0.681-0.404 1.036-0.524 1.222-1.712-3.602-3.415-9.569-3.433-9.632 0-0.001 0-0.004-0.001-0.005-0.093-0.313-0.311-0.557-0.613-0.686-0.911-0.39-2.496 0.354-3.001 0.613-1.265 0.788-0.513 3.19-0.371 3.579 0.485 2.785 4.307 10.652 4.495 11.033 0.6 0.976 0.617 1.632 0.379 1.83-1.426 1.188-2.237 2.422-2.554 3.879-0.058 0.267-0.171 0.449-0.346 0.558-0.311 0.192-0.78 0.135-0.864 0.119-1.932-0.777-4.984-0.984-5.155-0.994-2.97 0.037-4.051 2.675-4.212 4.126v3.295c0 0.045 0.006 0.092 0.018 0.138 0.313 1.211 2.374 1.35 2.836 1.367 0.969-0.051 1.527-0.679 1.586-0.751 0.084-0.099 0.13-0.225 0.13-0.354l0.003-1.408c-0.022-0.672 0.079-0.897 0.065-0.931 0.466 0.044 1.81 1.582 2.288 2.414 1.225 2.128 4.494 3.074 4.71 3.129 1.28 0.171 2.345 0.248 3.24 0.248 3.396 0 4.35-1.104 5.422-2.338l0.272-0.314c3.151-3.552 5.313-9.34 5.397-9.57 2.742-6.824-0.935-10.311-1.066-10.429zM24.935 19.382c-0.022 0.058-2.179 5.837-5.195 9.237l-0.282 0.322c-1.236 1.428-2.124 2.461-7.598 1.735-0.029-0.008-2.97-0.858-3.974-2.603-0.019-0.030-1.831-2.967-3.28-2.967-0.091 0-0.181 0.012-0.27 0.037-0.928 0.262-0.885 1.593-0.871 2.012l-0.003 1.152c-0.13 0.101-0.346 0.229-0.618 0.245-0.765-0.029-1.598-0.276-1.74-0.502l-0.003-3.134c0.014-0.125 0.375-3.051 3.081-3.085 0.029 0.001 3.002 0.201 4.836 0.936 0.102 0.028 1.019 0.248 1.788-0.22 0.434-0.266 0.729-0.704 0.852-1.266 0.265-1.224 0.939-2.231 2.182-3.269 0.288-0.24 1.128-1.181-0.119-3.204-0.039-0.080-3.916-8.060-4.397-10.777-0.326-0.951-0.443-2.166-0.151-2.351 0.806-0.411 1.807-0.689 2.005-0.577 0.082 0.287 1.91 6.687 3.743 10.302 0.066 0.128 0.18 0.227 0.317 0.273 0.082 0.029 0.373 0.102 0.737-0.087 0.531-0.273 0.951-0.948 1.286-2.064 0.131-0.441 0.657-1.902 1.886-2.192 1.239-0.296 2.959 0.661 4.975 2.796 0.134 0.127 3.263 3.15 0.813 9.252z"></path>
		<path fill="#3f95b5" style="fill: var(--color1, #3f95b5)" d="M17.803 26.57c-2.047 2.663-6.11 0.44-6.28 0.344-0.26-0.145-0.607-0.076-0.771 0.159-0.164 0.234-0.085 0.542 0.176 0.688 0.943 0.53 2.495 1.102 4.058 1.102 1.369 0 2.746-0.439 3.739-1.727 0.175-0.227 0.109-0.539-0.145-0.696-0.253-0.154-0.601-0.1-0.777 0.13z"></path>
	</symbol>
	<symbol id="icon-Better-Sleep" viewBox="0 0 90 32">
		<title>Better-Sleep</title>
		<path fill="#3f95b5" style="fill: var(--color1, #3f95b5); stroke: var(--color1, #3f95b5)" stroke="#3f95b5" stroke-linejoin="miter" stroke-linecap="butt" stroke-miterlimit="4" stroke-width="0.7273" d="M1.455 30.647h87.273v-1.92h-87.273z"></path>
		<path fill="#3f95b5" style="fill: var(--color1, #3f95b5); stroke: var(--color1, #3f95b5)" stroke="#3f95b5" stroke-linejoin="miter" stroke-linecap="butt" stroke-miterlimit="4" stroke-width="0.7273" d="M1.455 25.193h87.273v-1.92h-87.273z"></path>
		<path fill="#fff" style="fill: var(--color2, #fff); stroke: var(--color3, #979797)" stroke="#979797" stroke-linejoin="miter" stroke-linecap="butt" stroke-miterlimit="4" stroke-width="0.7273" d="M88.727 17.818h-87.273v-2.505c0-4.639 3.751-8.404 8.379-8.404h70.509c4.628 0 8.384 3.765 8.384 8.404v2.505z"></path>
		<path fill="#3f95b5" style="fill: var(--color1, #3f95b5); stroke: var(--color1, #3f95b5)" stroke="#3f95b5" stroke-linejoin="miter" stroke-linecap="butt" stroke-miterlimit="4" stroke-width="0.7273" d="M87.819 17.022v-0.796h-84.547v-1.344c0-1.765 0.811-3.357 2.138-4.511 1.327-1.158 3.145-1.873 5.158-1.873h69.041c2.018 0 3.841 0.715 5.163 1.873 1.322 1.154 2.138 2.747 2.138 4.511v2.14h1.817v-2.14c0-4.403-4.080-7.973-9.118-7.973h-69.041c-5.033 0-9.113 3.57-9.113 7.973v2.937h87.273v-0.796h-0.909z"></path>
		<path fill="#fff" style="fill: var(--color2, #fff); stroke: var(--color3, #979797)" stroke="#979797" stroke-linejoin="miter" stroke-linecap="butt" stroke-miterlimit="4" stroke-width="0.7273" d="M28.727 12.364h-21.818v-4.36c0-3.617 2.559-6.549 5.721-6.549h10.376c3.163 0 5.721 2.932 5.721 6.549v4.36z"></path>
		<path fill="#3f95b5" style="fill: var(--color1, #3f95b5); stroke: var(--color1, #3f95b5)" stroke="#3f95b5" stroke-linejoin="miter" stroke-linecap="butt" stroke-miterlimit="4" stroke-width="0.7273" d="M27.697 11.514v-0.85h-19.382v-2.833c0-1.294 0.501-2.457 1.313-3.311 0.812-0.85 1.93-1.371 3.17-1.371h9.603c1.24 0 2.358 0.521 3.17 1.371 0.812 0.854 1.313 2.018 1.313 3.311v3.683h1.624v-3.683c0-3.524-2.733-6.377-6.107-6.377h-9.604c-3.375 0-6.107 2.853-6.107 6.377v4.533h21.818v-0.85h-0.812z"></path>
	</symbol>
	<symbol id="icon-Reduced-Leg-Swelling" viewBox="0 0 32 32">
		<title>Reduced-Leg-Swelling</title>
		<path fill="#3f95b5" style="fill: var(--color1, #3f95b5)" d="M16.945 31.12c0.698-0.032 1.394-0.068 2.094-0.094 2.982-0.11 5.948-0.4 8.838-1.164 0.944-0.25 1.862-0.648 2.736-1.092 0.59-0.296 0.588-0.81 0.026-1.156s-1.194-0.582-1.814-0.826c-0.11-0.044-0.322 0.070-0.446 0.166-0.724 0.556-1.534 0.904-2.442 0.944-3.904 0.166-7.784-0.074-11.65-0.656-1.774-0.268-3.516-0.182-5.234 0.458-1.614 0.6-3.224 0.414-4.592-0.646-0.582-0.454-1.036-0.424-1.604-0.178-0.094 0.038-0.198 0.060-0.286 0.106-0.426 0.214-0.882 0.392-1.268 0.664-0.476 0.332-0.466 0.706-0.018 1.068 0.224 0.18 0.482 0.33 0.744 0.448 1.814 0.8 3.748 1.136 5.692 1.41 3.058 0.426 6.136 0.566 9.224 0.548zM3.237 22.576c0.050 0.014 0.1 0.032 0.15 0.048 0.508-0.596 1.016-1.194 1.52-1.792 0.612-0.72 1.222-1.444 1.834-2.164 0.288-0.34 0.608-0.428 0.812-0.222 0.29 0.294 0.132 0.55-0.090 0.796-0.050 0.052-0.094 0.108-0.142 0.166-1.132 1.328-2.266 2.656-3.396 3.988-0.58 0.682-0.592 0.934-0.090 1.7 0.070 0.112 0.162 0.208 0.23 0.32 0.18 0.31 0.346 0.32 0.588 0.038 0.906-1.044 1.828-2.074 2.742-3.112 0.72-0.82 1.434-1.644 2.164-2.456 0.184-0.208 0.426-0.338 0.684-0.098 0.26 0.24 0.202 0.472-0.020 0.716-0.43 0.474-0.844 0.962-1.268 1.442-1.222 1.386-2.444 2.776-3.672 4.154-0.208 0.232-0.188 0.382 0.098 0.48 0.436 0.156 0.876 0.29 1.312 0.444 0.278 0.1 0.464 0.004 0.646-0.206 0.942-1.092 1.892-2.176 2.838-3.262 0.584-0.668 1.166-1.34 1.758-2 0.28-0.31 0.646-0.302 0.772 0.042 0.056 0.156-0.018 0.432-0.134 0.566-1.024 1.212-2.076 2.402-3.116 3.598-0.28 0.32-0.556 0.648-0.896 1.042 0.176 0 0.25 0.020 0.306-0.002 1-0.39 2.038-0.574 3.11-0.604 0.092-0.004 0.206-0.084 0.266-0.162 0.894-1.13 1.78-2.266 2.666-3.4 0.202-0.256 0.45-0.412 0.744-0.178 0.282 0.226 0.168 0.488-0.022 0.726-0.436 0.548-0.872 1.092-1.306 1.642-0.338 0.428-0.674 0.862-1.018 1.302 0.070 0.048 0.102 0.090 0.14 0.094 0.692 0.088 1.382 0.184 2.078 0.238 0.134 0.012 0.322-0.114 0.422-0.232 0.422-0.5 0.816-1.024 1.224-1.536 0.398-0.502 0.788-1.012 1.21-1.492 0.104-0.118 0.338-0.198 0.486-0.168 0.122 0.026 0.286 0.234 0.29 0.368 0.008 0.166-0.096 0.358-0.206 0.502-0.586 0.76-1.192 1.506-1.786 2.26-0.094 0.118-0.174 0.25-0.318 0.46 0.924 0.108 1.752 0.206 2.584 0.29 0.072 0.004 0.18-0.104 0.232-0.184 0.468-0.72 0.918-1.45 1.39-2.164 0.154-0.236 0.392-0.318 0.638-0.134 0.234 0.176 0.258 0.406 0.096 0.652-0.266 0.402-0.532 0.802-0.792 1.204-0.136 0.21-0.262 0.426-0.44 0.712 0.918 0 1.714 0.010 2.512-0.010 0.11-0.002 0.25-0.132 0.326-0.24 0.344-0.488 0.662-0.992 1.002-1.482 0.22-0.318 0.512-0.368 0.728-0.146 0.204 0.214 0.174 0.434 0.016 0.668-0.25 0.368-0.484 0.742-0.78 1.206 0.58 0 1.044 0.028 1.502-0.008 0.722-0.060 1.394-0.286 1.96-0.76 0.8-0.672 0.802-1.722-0.060-2.3-0.456-0.306-1.016-0.568-1.55-0.626-1.28-0.138-2.516-0.36-3.582-1.114-0.698-0.494-1.306-1.118-2.010-1.6-1.948-1.326-3.902-2.64-5.896-3.894-1.156-0.726-1.78-1.678-1.716-3.050 0.060-1.236 0.12-2.472 0.18-3.706 0.14-2.82 0.276-5.64 0.426-8.458 0.020-0.352-0.066-0.488-0.446-0.484-3.902 0.034-7.802 0.052-11.704 0.080-0.112 0-0.222 0.026-0.368 0.046 0.284 1.012 0.568 1.986 0.83 2.966 0.676 2.53 1.234 5.086 1.534 7.69 0.168 1.458 0.29 2.922 0.368 4.386 0.098 1.848 0.058 3.692-0.44 5.498-0.080 0.296-0.102 0.608-0.15 0.916zM3.025 25.85c-0.242-0.902-0.504-1.712-0.67-2.54-0.156-0.786 0.146-1.548 0.24-2.32 0.19-1.54 0.342-3.096 0.326-4.646-0.040-3.738-0.698-7.402-1.618-11.016-0.366-1.436-0.802-2.854-1.22-4.278-0.198-0.682-0.062-0.892 0.64-0.896 4.338-0.022 8.676-0.046 13.014-0.066 0.73-0.004 0.834 0.102 0.802 0.84-0.144 3.112-0.296 6.224-0.446 9.332-0.054 1.134-0.108 2.268-0.176 3.402-0.058 0.97 0.352 1.67 1.176 2.168 2.142 1.296 4.31 2.556 6.236 4.166 0.826 0.688 1.578 1.498 2.622 1.846 0.72 0.242 1.484 0.364 2.234 0.5 0.726 0.132 1.414 0.34 2.020 0.772 0.86 0.61 1.298 1.4 1.030 2.476-0.064 0.25 0.004 0.35 0.242 0.45 0.52 0.22 1.052 0.438 1.526 0.74 1.282 0.818 1.272 1.962 0.010 2.802-1.022 0.682-2.184 1.016-3.36 1.294-2.338 0.548-4.718 0.856-7.116 0.96-2.034 0.092-4.074 0.202-6.108 0.152-3.738-0.094-7.466-0.356-11.092-1.382-0.996-0.282-1.972-0.63-2.756-1.348-0.738-0.676-0.788-1.48-0.014-2.092 0.6-0.476 1.34-0.78 2.026-1.152 0.162-0.088 0.348-0.134 0.432-0.164z"></path>
		<path fill="#3f95b5" style="fill: var(--color1, #3f95b5)" d="M21.576 10.432c-0.306 0.53-0.564 1.018-0.876 1.464-0.066 0.094-0.394 0.122-0.498 0.042-0.126-0.094-0.242-0.376-0.188-0.504 0.19-0.45 0.432-0.886 0.71-1.292 0.080-0.114 0.37-0.17 0.526-0.128 0.13 0.040 0.21 0.262 0.326 0.418z"></path>
		<path fill="#3f95b5" style="fill: var(--color1, #3f95b5)" d="M23.408 12c0.1 0.074 0.266 0.14 0.324 0.262 0.056 0.114 0.060 0.336-0.014 0.424-0.324 0.386-0.668 0.762-1.046 1.090-0.102 0.088-0.398 0.058-0.526-0.032-0.106-0.078-0.188-0.392-0.122-0.472 0.334-0.416 0.712-0.792 1.088-1.172 0.052-0.054 0.156-0.056 0.296-0.1z"></path>
		<path fill="#3f95b5" style="fill: var(--color1, #3f95b5)" d="M25.543 16c0.188 0.15 0.386 0.232 0.422 0.36 0.040 0.15 0.002 0.418-0.106 0.498-0.394 0.288-0.816 0.55-1.26 0.76-0.128 0.060-0.386-0.046-0.524-0.156-0.080-0.060-0.102-0.364-0.038-0.414 0.474-0.362 0.976-0.688 1.506-1.048z"></path>
		<path fill="#3f95b5" style="fill: var(--color1, #3f95b5)" d="M20 14.815c0.352-0.3 0.642-0.582 0.97-0.806 0.068-0.046 0.336 0.094 0.41 0.212 0.074 0.112 0.072 0.348-0.004 0.46-0.148 0.222-0.346 0.426-0.566 0.584-0.11 0.076-0.338 0.082-0.462 0.020-0.128-0.060-0.192-0.246-0.348-0.47z"></path>
		<path fill="#3f95b5" style="fill: var(--color1, #3f95b5)" d="M19.19 12.285c0.018 0.5-0.462 1.168-0.742 1.162-0.258-0.008-0.44-0.13-0.448-0.42-0.012-0.392 0.47-1.078 0.758-1.024 0.184 0.038 0.338 0.218 0.432 0.282z"></path>
		<path fill="#3f95b5" style="fill: var(--color1, #3f95b5)" d="M22.958 16c0.174 0.138 0.362 0.216 0.41 0.346 0.050 0.132 0.022 0.382-0.072 0.464-0.224 0.196-0.496 0.358-0.778 0.462-0.118 0.044-0.36-0.050-0.442-0.158-0.082-0.11-0.106-0.396-0.028-0.468 0.26-0.24 0.574-0.416 0.91-0.646z"></path>
	</symbol>
	<symbol id="icon-Ease-Of-Getting" viewBox="0 0 66 32">
		<title>Ease-Of-Getting</title>
		<path fill="#3f95b5" style="fill: var(--color1, #3f95b5); stroke: var(--color1, #3f95b5)" stroke="#3f95b5" stroke-linejoin="miter" stroke-linecap="butt" stroke-miterlimit="4" stroke-width="0.5333" d="M1.067 17.498h64v-1.498h-64z"></path>
		<path fill="#3f95b5" style="fill: var(--color1, #3f95b5); stroke: var(--color1, #3f95b5)" stroke="#3f95b5" stroke-linejoin="miter" stroke-linecap="butt" stroke-miterlimit="4" stroke-width="0.5333" d="M64.398 12.256v-0.544h-61.997v-0.46c0-1.336 0.661-2.541 1.73-3.417 1.072-0.876 2.545-1.413 4.182-1.413h49.505c1.634 0 3.11 0.537 4.182 1.413s1.73 2.081 1.73 3.417v1.003h1.338v-1.003c-0.004-3.267-3.248-5.92-7.249-5.92h-49.505c-4.005 0-7.246 2.652-7.246 5.92v1.547h64v-0.544h-0.669z"></path>
		<path fill="#fff" style="fill: var(--color2, #fff); stroke: var(--color1, #3f95b5)" stroke="#3f95b5" stroke-linejoin="miter" stroke-linecap="butt" stroke-miterlimit="4" stroke-width="0.5333" d="M22.4 8.533h-16v-2.562c0-2.711 2.056-4.905 4.591-4.905h6.822c2.535 0 4.587 2.193 4.587 4.905v2.562z"></path>
		<path fill="#3f95b5" style="fill: var(--color1, #3f95b5); stroke: var(--color1, #3f95b5)" stroke="#3f95b5" stroke-linejoin="miter" stroke-linecap="butt" stroke-miterlimit="4" stroke-width="0.5333" d="M23.816 7.951v-0.579h-17.057v-1.583c0-0.987 0.49-1.871 1.286-2.516s1.888-1.043 3.1-1.043h7.576c1.212 0 2.3 0.397 3.1 1.043 0.791 0.646 1.282 1.53 1.282 2.516v2.162h1.43v-2.162c0-2.609-2.601-4.722-5.812-4.722h-7.576c-3.211 0-5.812 2.113-5.812 4.722v2.745h19.2v-0.583h-0.717z"></path>
		<path fill="#3f95b5" style="fill: var(--color1, #3f95b5); stroke: var(--color1, #3f95b5)" stroke="#3f95b5" stroke-linejoin="miter" stroke-linecap="butt" stroke-miterlimit="4" stroke-width="0.5333" d="M1.067 29.231h64v-1.498h-64z"></path>
		<path fill="#3f95b5" style="fill: var(--color1, #3f95b5); stroke: var(--color1, #3f95b5)" stroke="#3f95b5" stroke-linejoin="miter" stroke-linecap="butt" stroke-miterlimit="4" stroke-width="0.5333" d="M30.933 27.733h1.481v-7.467h-1.481z"></path>
		<path fill="#3f95b5" style="fill: var(--color1, #3f95b5); stroke: var(--color1, #3f95b5)" stroke="#3f95b5" stroke-linejoin="miter" stroke-linecap="butt" stroke-miterlimit="4" stroke-width="0.5333" d="M35.2 27.733l-2.133 3.874-2.133-3.874z"></path>
		<path fill="#3f95b5" style="fill: var(--color1, #3f95b5); stroke: var(--color1, #3f95b5)" stroke="#3f95b5" stroke-linejoin="miter" stroke-linecap="butt" stroke-miterlimit="4" stroke-width="0.5333" d="M35.2 19.874l-2.133-3.874-2.133 3.874z"></path>
	</symbol>
	

</defs>
</svg>
