<?xml version="1.0" encoding="UTF-8"?>
<svg width="20px" height="11px" viewBox="0 0 20 11" version="1.1" xmlns="http://www.w3.org/2000/svg" xmlns:xlink="http://www.w3.org/1999/xlink">
    <!-- Generator: Sketch 50.2 (55047) - http://www.bohemiancoding.com/sketch -->
    <title>Group</title>
    <desc>Created with Sketch.</desc>
    <defs></defs>
    <g id="blog" stroke="none" stroke-width="1" fill="none" fill-rule="evenodd">
        <g id="blogs" transform="translate(-331.000000, -1126.000000)" fill="#666666" fill-rule="nonzero">
            <g id="blog-1-copy-4" transform="translate(144.000000, 674.000000)">
                <g id="Group" transform="translate(187.000000, 452.000000)">
                    <circle id="Oval" cx="9.88764045" cy="5.39325843" r="1"></circle>
                    <path d="M9.88764045,8.98876404 C7.90516854,8.98876404 6.29213483,7.37573034 6.29213483,5.39325843 C6.29213483,3.41078652 7.90516854,1.79775281 9.88764045,1.79775281 C11.8701124,1.79775281 13.4831461,3.41078652 13.4831461,5.39325843 C13.4831461,7.37573034 11.8701124,8.98876404 9.88764045,8.98876404 Z M9.88764045,2.69662921 C8.40067416,2.69662921 7.19101124,3.90629213 7.19101124,5.39325843 C7.19101124,6.88022472 8.40067416,8.08988764 9.88764045,8.08988764 C11.3746067,8.08988764 12.5842697,6.88022472 12.5842697,5.39325843 C12.5842697,3.90629213 11.3746067,2.69662921 9.88764045,2.69662921 Z" id="Shape"></path>
                    <path d="M9.88764045,10.7865169 C6.56314607,10.7865169 3.73662921,9.31595506 0.131460674,5.71101124 C0.0474157303,5.62674157 0,5.51235955 0,5.39325843 C0,5.2741573 0.0474157303,5.15977528 0.131685393,5.07550562 C3.73662921,1.47033708 6.56314607,0 9.88764045,0 C13.2121348,0 16.0388764,1.47033708 19.6438202,5.07550562 C19.8193258,5.25101124 19.8193258,5.53550562 19.6438202,5.71101124 C16.0386517,9.31595506 13.2121348,10.7865169 9.88764045,10.7865169 Z M1.08853933,5.39325843 C4.39033708,8.6211236 6.88426966,9.88764045 9.88764045,9.88764045 C12.8910112,9.88764045 15.3849438,8.6211236 18.6867416,5.39325843 C15.3851685,2.16539326 12.891236,0.898876404 9.88764045,0.898876404 C6.88404494,0.898876404 4.39011236,2.16539326 1.08853933,5.39325843 Z" id="Shape"></path>
                </g>
            </g>
        </g>
    </g>
</svg>